<?xml version="1.0" standalone="no"?>
<!DOCTYPE svg PUBLIC "-//W3C//DTD SVG 1.1//EN" "http://www.w3.org/Graphics/SVG/1.1/DTD/svg11.dtd" >
<svg xmlns="http://www.w3.org/2000/svg">
<metadata></metadata>
<defs>
<font id="museo_slab500" horiz-adv-x="1021" >
<font-face units-per-em="2048" ascent="1536" descent="-512" />
<missing-glyph horiz-adv-x="512" />
<glyph horiz-adv-x="0" />
<glyph horiz-adv-x="682" />
<glyph unicode=" "  horiz-adv-x="512" />
<glyph unicode="&#x09;" horiz-adv-x="512" />
<glyph unicode="&#xa0;" horiz-adv-x="512" />
<glyph unicode="!" horiz-adv-x="505" d="M150 1446h204l-12 -1049h-178zM152 0v201h204v-201h-204z" />
<glyph unicode="&#x22;" horiz-adv-x="704" d="M131 1036v434h156v-434h-156zM418 1036v434h155v-434h-155z" />
<glyph unicode="#" horiz-adv-x="1468" d="M86 391l25 152h268l61 344h-266l25 149h266l72 410h165l-71 -410h317l72 410h168l-72 -410h266l-24 -149h-268l-62 -344h266l-24 -152h-266l-68 -391h-168l70 391h-318l-69 -391h-166l69 391h-268zM545 543h317l62 344h-318z" />
<glyph unicode="$" horiz-adv-x="1112" d="M86 197l111 145q6 -6 18 -16.5t51 -37.5t79.5 -47.5t100.5 -37.5t119 -17q108 0 181 58t73 155q0 51 -30.5 92t-80 68t-113.5 55.5t-130 53t-130 60.5t-113.5 78t-80 106.5t-30.5 144.5q0 143 105.5 247.5t275.5 129.5v223h145v-221q64 -4 123.5 -20.5t99 -36.5 t69.5 -39.5t44 -32.5l14 -13l-88 -157q-6 5 -16.5 13.5t-44 30t-68.5 38t-86.5 30t-101.5 13.5q-120 0 -193.5 -57t-73.5 -144q0 -48 24.5 -87.5t65.5 -67t94 -51.5t112 -46.5t117.5 -46.5t111.5 -56.5t94 -71.5t65.5 -96t24.5 -126q0 -155 -105 -268.5t-282 -133.5v-219 h-145v219q-73 8 -142 30t-115 48t-81 51t-52 41z" />
<glyph unicode="%" horiz-adv-x="1536" d="M88 1167q0 125 90 214t219 89t220.5 -89t91.5 -214q0 -126 -91.5 -214.5t-220.5 -88.5t-219 88.5t-90 214.5zM119 0l1106 1446h192l-1106 -1446h-192zM246 1167q0 -65 43 -108t108 -43t108.5 43.5t43.5 107.5t-44 109t-108 45t-107.5 -45t-43.5 -109zM829 279 q0 125 91 214t221 89q127 0 218 -89t91 -214q0 -126 -90.5 -215t-218.5 -89q-130 0 -221 89t-91 215zM989 279q0 -65 43.5 -108.5t108.5 -43.5q63 0 107 44t44 108q0 63 -44 108t-107 45q-64 0 -108 -45t-44 -108z" />
<glyph unicode="&#x26;" horiz-adv-x="1382" d="M100 403q0 127 70.5 230.5t191.5 142.5v4q-8 3 -21.5 9t-48 31t-61 57t-48 91t-21.5 130q0 175 129.5 273.5t333.5 98.5q38 0 83 -5.5t71 -10.5l26 -6l-51 -162q-60 12 -109 12q-121 0 -198.5 -59t-77.5 -162q0 -40 11 -76.5t38 -73.5t83 -59t136 -22h307v201h199v-201 h190v-168h-190v-197q0 -239 -139 -372.5t-379 -133.5q-233 0 -379 122t-146 306zM307 420q0 -115 86 -188.5t232 -73.5q150 0 234.5 82t84.5 249v189h-317q-154 0 -237 -68.5t-83 -189.5z" />
<glyph unicode="'" horiz-adv-x="419" d="M131 1036v434h158v-434h-158z" />
<glyph unicode="(" horiz-adv-x="643" d="M141 696q0 430 238 809h174q-231 -385 -231 -811q0 -476 231 -889h-174q-113 188 -175.5 418t-62.5 473z" />
<glyph unicode=")" horiz-adv-x="643" d="M90 -195q232 420 232 889q0 424 -232 811h174q238 -379 238 -809q0 -243 -62.5 -473t-175.5 -418h-174z" />
<glyph unicode="*" horiz-adv-x="980" d="M84 1085l55 172l273 -102l-17 291h187l-17 -291l275 102l57 -172l-283 -75v-4l183 -226l-148 -106l-157 241h-5l-157 -241l-148 106l183 226v4z" />
<glyph unicode="+" horiz-adv-x="1255" d="M86 504v160h459v503h168v-503h456v-160h-456v-504h-168v504h-459z" />
<glyph unicode="," horiz-adv-x="534" d="M41 -254l143 469h209l-194 -469h-158z" />
<glyph unicode="-" horiz-adv-x="974" d="M188 496v176h598v-176h-598z" />
<glyph unicode="." horiz-adv-x="524" d="M156 0v215h213v-215h-213z" />
<glyph unicode="/" horiz-adv-x="868" d="M84 -86l522 1610h176l-522 -1610h-176z" />
<glyph unicode="0" horiz-adv-x="1269" d="M123 725q0 129 16 237.5t53 204t95 161.5t146.5 104t201.5 38t201 -38t146 -104t95.5 -161.5t53.5 -204t16 -237.5q0 -130 -16 -239t-53.5 -205t-95.5 -162.5t-146 -105t-201 -38.5t-201.5 38.5t-146.5 105t-95 162.5t-53 205t-16 239zM332 725q0 -127 14.5 -224.5 t47.5 -177.5t94 -122.5t147 -42.5t146.5 42.5t94 122.5t48 178t14.5 224q0 125 -14.5 222.5t-48 177t-94 122.5t-146.5 43t-147 -43t-94 -123t-47.5 -177t-14.5 -222z" />
<glyph unicode="1" horiz-adv-x="980" d="M94 1110l346 336h181v-1278h315v-168h-832v168h320v942l2 88h-4q-17 -31 -70 -82l-135 -133z" />
<glyph unicode="2" horiz-adv-x="1200" d="M100 111q0 83 24.5 156t66 129.5t95.5 107t114 93t119.5 83t113.5 81.5t95.5 83.5t66 94t24.5 108.5q0 111 -71.5 177t-188.5 66q-53 0 -103.5 -20t-84.5 -48t-60 -56t-39 -48l-12 -20l-143 98q3 6 8 15.5t25 38t43.5 54.5t63.5 57.5t84 54.5t105.5 38.5t128.5 15.5 q200 0 328.5 -114.5t128.5 -300.5q0 -94 -39 -176.5t-101.5 -143t-137.5 -115.5t-151 -105t-138.5 -100.5t-102 -113.5t-40.5 -133h589v192h179v-360h-979q-11 72 -11 111z" />
<glyph unicode="3" horiz-adv-x="1167" d="M86 172l107 145l17 -17t47 -38.5t74.5 -48.5t97 -38t116.5 -17q124 0 210.5 78t86.5 196q0 125 -91.5 196.5t-228.5 71.5q-66 0 -86 -4l-47 107l352 424q10 13 24 26t23 20l9 7v4q-45 -6 -74 -6h-404v-184h-178v352h883v-141l-383 -451q57 -6 112 -23t110 -50.5t96 -79 t66.5 -113.5t25.5 -148q0 -93 -35.5 -177.5t-99 -148t-157.5 -101.5t-204 -38q-83 0 -162 20.5t-132 49.5t-94.5 57.5t-60.5 49.5z" />
<glyph unicode="4" horiz-adv-x="1226" d="M53 387v127l670 932h229v-895h197v-164h-197v-387h-198v387h-701zM274 551h480v567q0 22 2.5 49.5t5.5 44.5l2 17h-6q-22 -51 -53 -96l-431 -578v-4z" />
<glyph unicode="5" horiz-adv-x="1155" d="M86 162l107 143q5 -6 14.5 -16t41.5 -35t67 -44.5t91 -35.5t115 -16q136 0 231 86t95 209q0 134 -89.5 216.5t-238.5 82.5q-68 0 -131.5 -18.5t-92.5 -37.5l-30 -18l-119 43l72 725h748v-352h-179v184h-393l-37 -346l-10 -58h4q9 5 25.5 12.5t70 20.5t109.5 13 q221 0 360.5 -131.5t139.5 -327.5q0 -134 -68 -245.5t-188.5 -176t-268.5 -64.5q-82 0 -158 19.5t-126 46.5t-88.5 54.5t-55.5 46.5z" />
<glyph unicode="6" horiz-adv-x="1222" d="M115 651q0 118 24 232.5t76.5 221t128 187.5t186 129.5t242.5 48.5q74 0 143 -15t101 -29l33 -15l-64 -170q-10 5 -28.5 13.5t-73.5 22t-107 13.5q-96 0 -175.5 -42t-131.5 -113t-84.5 -156t-44.5 -180h4q47 62 137 99.5t191 37.5q201 0 329.5 -136t128.5 -337 q0 -214 -135 -351t-340 -137q-238 0 -389 187t-151 489zM328 545q0 -86 40 -174t116.5 -150.5t168.5 -62.5q124 0 197.5 84.5t73.5 220.5q0 134 -82 218.5t-228 84.5q-120 0 -203 -66t-83 -155z" />
<glyph unicode="7" horiz-adv-x="1112" d="M82 1094v352h991v-139l-653 -1307h-209l598 1208q10 21 21.5 39t17.5 25l6 8v4q-37 -6 -84 -6h-510v-184h-178z" />
<glyph unicode="8" horiz-adv-x="1228" d="M111 408q0 228 233 393q-176 117 -176 291q0 74 28.5 141t82.5 120.5t141.5 85t197.5 31.5q204 0 331.5 -104.5t127.5 -275.5q0 -69 -21.5 -137t-55.5 -119.5t-55 -77.5t-40 -45q207 -122 207 -314q0 -83 -35.5 -159.5t-99 -134.5t-157.5 -93t-204 -35q-217 0 -361 123.5 t-144 309.5zM315 428q0 -121 88 -197.5t211 -76.5q117 0 204 70t87 173q0 35 -10.5 64.5t-34 54.5t-48 44t-67.5 40.5t-75.5 36t-89.5 38.5t-93 40q-29 -22 -46.5 -37.5t-52.5 -54.5t-54 -89t-19 -106zM369 1090q0 -30 9.5 -57.5t22.5 -48t39.5 -42t47.5 -35.5t60 -33 t63.5 -29.5t71.5 -30t71 -30.5q125 147 125 283q0 106 -71 166.5t-190 60.5q-117 0 -183 -58t-66 -146z" />
<glyph unicode="9" horiz-adv-x="1222" d="M92 985q0 213 135.5 349t341.5 136q237 0 388 -186.5t151 -488.5q0 -117 -24 -231t-76.5 -221t-127.5 -188.5t-186 -130.5t-243 -49q-74 0 -143.5 15t-102.5 30l-33 15l64 172q10 -5 28.5 -13.5t73.5 -22t108 -13.5q97 0 177 42t132.5 113t85 156t44.5 180h-4 q-47 -59 -138 -95t-192 -36q-201 0 -330 134.5t-129 332.5zM301 985q0 -132 80.5 -214.5t222.5 -82.5q119 0 205 65.5t86 153.5q0 64 -25 132t-67.5 124t-104.5 91.5t-129 35.5q-122 0 -195 -86t-73 -219z" />
<glyph unicode=":" horiz-adv-x="610" d="M199 0v215h213v-215h-213zM199 821v215h213v-215h-213z" />
<glyph unicode=";" horiz-adv-x="612" d="M88 -254l125 469h209l-174 -469h-160zM209 821v215h209v-215h-209z" />
<glyph unicode="&#x3c;" horiz-adv-x="1255" d="M119 516v135l954 426v-182l-731 -309v-4l731 -310v-182z" />
<glyph unicode="=" horiz-adv-x="1255" d="M139 309v160h977v-160h-977zM139 696v160h977v-160h-977z" />
<glyph unicode="&#x3e;" horiz-adv-x="1255" d="M180 90v182l733 310v4l-733 309v182l957 -426v-135z" />
<glyph unicode="?" horiz-adv-x="960" d="M74 1343q6 5 16 14t45.5 32t74 40t99.5 31.5t123 14.5q178 0 303 -104.5t125 -270.5q0 -69 -20 -127.5t-52 -100.5t-70.5 -79.5t-77 -71.5t-70.5 -68.5t-52 -78t-20 -93.5v-84h-195v97q0 63 19 118t50 94.5t68 76t74 69.5t68 66.5t50 76t19 90.5q0 87 -66 145t-167 58 q-57 0 -115.5 -21.5t-88.5 -42.5l-30 -22zM297 0v201h207v-201h-207z" />
<glyph unicode="@" horiz-adv-x="1611" d="M88 496q0 156 57 295t158 240.5t246 160.5t313 59q128 0 227.5 -34t159 -92.5t89.5 -131.5t30 -157v-580h148v-150h-560q-187 0 -305.5 114t-118.5 274q0 102 51.5 189t149.5 140.5t223 53.5h222q-2 89 -90 149.5t-232 60.5q-162 0 -293.5 -81.5t-203.5 -217.5t-72 -296 q0 -159 72 -292.5t206 -213.5t303 -80v-162q-168 0 -314 58.5t-248 159t-160 239t-58 295.5zM733 494q0 -98 68.5 -168t171.5 -70h205v483h-201q-106 0 -175 -71t-69 -174z" />
<glyph unicode="A" horiz-adv-x="1476" d="M23 0v160h139l461 1286h231l461 -1286h139v-160h-502v160h154l-113 321h-512l-112 -321h155v-160h-501zM532 645h410l-176 502q-9 26 -15 53.5t-8 41.5l-2 15h-6q-6 -51 -24 -110z" />
<glyph unicode="B" horiz-adv-x="1392" d="M109 0v160h180v1128h-180v158h657q160 0 254 -43q89 -40 144 -126t55 -200q0 -105 -48.5 -186.5t-134.5 -124.5v-4q114 -33 177 -128.5t63 -221.5q0 -138 -75 -241.5t-191 -143.5q-82 -27 -217 -27h-684zM494 168h307q80 0 129 20q63 26 100 89t37 145q0 113 -68 180.5 t-182 67.5h-323v-502zM494 838h303q97 0 155 61t58 160q0 64 -25 114t-70 76q-59 29 -149 29h-272v-440z" />
<glyph unicode="C" horiz-adv-x="1523" d="M100 731q0 209 97.5 378.5t267 265t375.5 95.5q58 0 124.5 -8t144 -29t139 -52t102.5 -82t41 -115v-176h-191v112q0 45 -35.5 80.5t-91 54.5t-113.5 29t-112 10q-233 0 -385 -155.5t-152 -399.5q0 -255 156 -420t393 -165q45 0 100.5 8.5t117 26t102.5 53t41 82.5v112 h190v-176q0 -61 -39.5 -111t-100.5 -81.5t-138.5 -53t-148.5 -30.5t-136 -9q-160 0 -299.5 59t-237.5 160.5t-154.5 241t-56.5 295.5z" />
<glyph unicode="D" horiz-adv-x="1595" d="M109 0v160h180v1128h-180v158h616q191 0 307 -35q210 -66 333.5 -247t123.5 -441t-121 -438t-336 -246q-118 -39 -305 -39h-618zM494 168h221q152 0 246 37q148 52 231.5 187t83.5 331q0 197 -83 333t-230 189q-91 33 -248 33h-221v-1110z" />
<glyph unicode="E" horiz-adv-x="1294" d="M109 0v160h180v1128h-180v158h1046v-336h-178v168h-483v-465h512v-168h-512v-477h518v174h178v-342h-1081z" />
<glyph unicode="F" horiz-adv-x="1181" d="M109 0v160h180v1128h-180v158h1001v-342h-178v166h-438v-479h499v-168h-499v-463h196v-160h-581z" />
<glyph unicode="G" horiz-adv-x="1568" d="M100 727q0 159 55.5 296.5t154 236t240.5 154.5t308 56q97 0 194 -19t178.5 -54t132 -90.5t50.5 -120.5v-178h-188v106q0 57 -56 99.5t-136 61.5t-169 19q-251 0 -401 -155t-150 -406q0 -167 67.5 -298t195 -206t294.5 -75q55 0 116 9t125 28t105 56t41 87v190h-282v160 h471v-405q0 -64 -41 -117t-104 -86.5t-143.5 -57t-156.5 -33.5t-145 -10q-218 0 -391.5 98.5t-269 270t-95.5 383.5z" />
<glyph unicode="H" horiz-adv-x="1736" d="M109 0v160h180v1128h-180v158h567v-158h-182v-481h749v481h-182v158h567v-158h-180v-1128h180v-160h-567v160h182v479h-749v-479h182v-160h-567z" />
<glyph unicode="I" horiz-adv-x="782" d="M109 0v160h180v1128h-180v158h567v-158h-182v-1128h182v-160h-567z" />
<glyph unicode="J" horiz-adv-x="1136" d="M49 403v84h199v-63q0 -115 55 -190.5t168 -75.5q96 0 157.5 64t61.5 202v864h-209v158h576v-158h-162v-876q0 -111 -36.5 -197.5t-98.5 -137.5t-136 -76.5t-155 -25.5q-64 0 -123.5 14.5t-114 47.5t-94.5 81.5t-64 121.5t-24 163z" />
<glyph unicode="K" horiz-adv-x="1417" d="M109 0v160h180v1128h-180v158h542v-158h-157v-454h186l315 454h-133v158h490v-158h-140l-374 -522v-4q5 -2 12.5 -7t29.5 -29.5t40 -59.5l260 -453q17 -29 40.5 -41t61.5 -12h68v-160h-146q-60 0 -96.5 11.5t-58 33t-45.5 64.5l-279 499q-19 31 -44.5 44.5t-68.5 13.5 h-118v-506h178v-160h-563z" />
<glyph unicode="L" horiz-adv-x="1236" d="M111 0v160h180v1118h-180v168h567v-168h-182v-1110h503v233h181v-401h-1069z" />
<glyph unicode="M" horiz-adv-x="1961" d="M78 0v160h180l92 1128h-184v158h409l371 -881q10 -26 18.5 -52t11.5 -39l3 -13h4q10 45 33 104l370 881h410v-158h-184l92 -1128h180v-160h-557v160h174l-65 864q-1 20 0.5 50t3.5 50l2 19h-6q-17 -70 -33 -111l-332 -760h-180l-332 760q-7 18 -15.5 46t-13.5 46l-4 19 h-6q1 -8 2 -21.5t3 -45.5t1 -52l-65 -864h174v-160h-557z" />
<glyph unicode="N" horiz-adv-x="1716" d="M109 0v160h180v1128h-180v158h383l710 -1036q11 -18 23.5 -44.5t18.5 -43.5l7 -17h6q-10 72 -10 117v866h-184v158h571v-158h-182v-1288h-201l-710 1036q-12 18 -24 44.5t-19 43.5l-6 17h-7q1 -8 3 -21t4.5 -44.5t1.5 -51.5v-864h186v-160h-571z" />
<glyph unicode="O" horiz-adv-x="1683" d="M98 733q0 153 57.5 290t156.5 235t237 155t293 57q206 0 376.5 -97t268.5 -266t98 -374q0 -210 -98 -384t-268.5 -274t-376.5 -100q-155 0 -293 59t-237 160t-156.5 241.5t-57.5 297.5zM309 733q0 -160 71.5 -292.5t193.5 -207.5t268 -75q108 0 206 44.5t169 120.5 t113 183t42 227q0 155 -71 283t-192.5 201t-266.5 73q-146 0 -268 -73t-193.5 -201t-71.5 -283z" />
<glyph unicode="P" horiz-adv-x="1337" d="M109 0v160h180v1128h-180v158h673q163 0 248 -39q113 -48 179.5 -157t66.5 -253q0 -152 -73.5 -266.5t-198.5 -157.5q-82 -30 -218 -30h-292v-383h182v-160h-567zM494 711h268q92 0 162 28q69 31 107 98t38 160q0 178 -129 246q-63 35 -176 35h-270v-567z" />
<glyph unicode="Q" horiz-adv-x="1689" d="M100 731q0 206 97 375.5t267.5 266.5t379.5 97q208 0 378.5 -94t268.5 -261.5t98 -373.5q0 -282 -174 -487l172 -164l-117 -127l-170 170q-194 -158 -458 -158q-206 0 -377 100.5t-268 274t-97 381.5zM311 731q0 -159 70.5 -291t193 -207t269.5 -75q83 0 168.5 28 t146.5 80l-213 211l117 125l211 -213q108 154 108 344q0 236 -155.5 396.5t-382.5 160.5q-225 0 -379 -160.5t-154 -398.5z" />
<glyph unicode="R" horiz-adv-x="1437" d="M109 0v160h180v1128h-180v158h626q174 0 266 -31q118 -39 185 -135t67 -240q0 -156 -80 -262.5t-219 -142.5v-4q37 -21 62 -68l205 -356q17 -28 38.5 -37.5t61.5 -9.5h43v-160h-123q-89 0 -126 21t-75 88l-223 395q-29 47 -58 63.5t-93 16.5h-172v-424h178v-160h-563z M494 752h290q120 0 191.5 73t71.5 199q0 171 -136 227q-70 27 -178 27h-239v-526z" />
<glyph unicode="S" horiz-adv-x="1183" d="M109 283v151h188v-106q0 -77 85 -123.5t204 -46.5q128 0 207 58t79 163q0 56 -22.5 99t-76.5 77.5t-93 53t-123 50.5q-22 9 -33 13q-44 17 -72 28t-68 29.5t-66 36t-57 41.5t-50.5 51.5t-37.5 60.5t-26 74t-8 88q0 99 37.5 175t103 122t147 69t175.5 23q83 0 160.5 -15.5 t140 -44.5t100 -75.5t37.5 -103.5v-170h-190v100q0 59 -75.5 94t-172.5 35q-111 0 -182.5 -51t-71.5 -147q0 -23 3.5 -43t13.5 -38t18 -32.5t27 -29.5t30 -25t37.5 -23.5t39 -20t45 -19.5t45 -17.5t48.5 -18.5q59 -22 91.5 -35t84.5 -38t81.5 -46t65.5 -54t55 -68.5 t32.5 -84t13.5 -104.5q0 -133 -68 -230t-178 -143.5t-247 -46.5q-87 0 -170 19.5t-152.5 56.5t-112 97.5t-42.5 134.5z" />
<glyph unicode="T" horiz-adv-x="1359" d="M59 1053v393h1241v-393h-178v225h-340v-1118h183v-160h-570v160h183v1118h-340v-225h-179z" />
<glyph unicode="U" horiz-adv-x="1632" d="M63 1288v158h570v-158h-182v-747q0 -148 55 -236q44 -70 125.5 -108.5t185.5 -38.5t185.5 39t125.5 112q56 94 56 234v745h-183v158h568v-158h-180v-749q0 -209 -101 -353q-72 -102 -196 -156.5t-275 -54.5q-153 0 -277 55.5t-198 155.5q-96 130 -96 353v749h-183z" />
<glyph unicode="V" horiz-adv-x="1462" d="M25 1288v158h516v-158h-160l324 -952q7 -23 13 -51t8 -45l3 -17h6q9 62 25 113l323 952h-159v158h516v-158h-144l-456 -1288h-217l-457 1288h-141z" />
<glyph unicode="W" horiz-adv-x="2066" d="M33 1288v158h514v-158h-172l225 -948l16 -109h7q8 58 20 109l303 1106h174l301 -1106q6 -23 11.5 -50t7.5 -43l2 -16h8q4 58 14 109l226 948h-172v158h516v-158h-140l-323 -1288h-234l-282 1026q-6 23 -11 51.5t-6 46.5l-2 17h-8q-4 -64 -18 -115l-283 -1026h-233 l-322 1288h-139z" />
<glyph unicode="X" horiz-adv-x="1370" d="M61 0v160h136l372 571l-366 557h-133v158h503v-158h-153l239 -379l37 -57h4q12 26 35 57l232 379h-150v158h490v-158h-136l-374 -575l368 -553h138v-160h-504v160h151l-241 377l-37 59h-4q-1 0 -4.5 -7t-12 -22.5t-16.5 -29.5l-234 -377h152v-160h-492z" />
<glyph unicode="Y" horiz-adv-x="1331" d="M20 1288v158h498v-158h-151l268 -454l29 -62h4q12 31 30 62l269 454h-150v158h494v-158h-137l-406 -676v-452h182v-160h-569v160h182v452l-405 676h-138z" />
<glyph unicode="Z" horiz-adv-x="1294" d="M111 0v135l745 1075q13 18 27.5 35.5t22.5 26.5l9 8v4q-40 -6 -81 -6h-535v-225h-178v393h1042v-133l-745 -1077q-13 -18 -28 -35.5t-24 -26.5l-8 -8v-4q41 6 82 6h566v233h178v-401h-1073z" />
<glyph unicode="[" horiz-adv-x="636" d="M199 -195v1700h338v-149h-164v-1399h164v-152h-338z" />
<glyph unicode="\" horiz-adv-x="866" d="M86 1524h176l520 -1610h-174z" />
<glyph unicode="]" horiz-adv-x="638" d="M100 -43h166v1399h-166v149h340v-1700h-340v152z" />
<glyph unicode="^" horiz-adv-x="1255" d="M141 506l410 940h129l410 -940h-181l-295 721l-292 -721h-181z" />
<glyph unicode="_" horiz-adv-x="1140" d="M20 0h1100v-160h-1100v160z" />
<glyph unicode="`" d="M285 1806h229l211 -260h-186z" />
<glyph unicode="a" horiz-adv-x="1136" d="M68 289q0 67 25 121.5t64 90t95.5 62t109 40.5t116 22t106 10t88.5 2h65v39q0 221 -221 221q-73 0 -147 -25t-112 -50l-38 -25l-80 141q6 5 17.5 13.5t51 29.5t82 37t108.5 29.5t134 13.5q198 0 301 -101.5t103 -297.5v-463q0 -45 45 -45h104v-154h-206q-129 0 -129 113 v14q0 18 2 35t4 25l2 8h-4q-4 -9 -11.5 -24t-36.5 -52.5t-64.5 -66.5t-97 -53t-132.5 -24q-90 0 -166 33t-127 106t-51 175zM268 305q0 -73 50.5 -124.5t136.5 -51.5q84 0 150.5 52t100 128t33.5 156v43h-51q-29 0 -53.5 -0.5t-70 -5t-81.5 -11.5t-78.5 -22.5t-70.5 -36 t-47 -53.5t-19 -74z" />
<glyph unicode="b" horiz-adv-x="1247" d="M0 1292v154h373v-479q0 -22 -1.5 -43.5t-3.5 -31.5l-1 -11h4q4 7 11.5 19.5t36.5 43.5t64 54.5t94.5 43t127.5 19.5q209 0 332.5 -149.5t123.5 -393.5q0 -245 -132.5 -394t-340.5 -149q-49 0 -93.5 10.5t-76.5 27t-59.5 36.5t-45 40.5t-30 37t-17.5 27.5l-6 10h-4 q6 -37 6 -82v-82h-188v1292h-174zM367 514q0 -96 31 -177t100 -135.5t164 -54.5q127 0 211.5 99t84.5 270q0 168 -81 269.5t-211 101.5q-60 0 -112 -21.5t-95 -65t-67.5 -117.5t-24.5 -169z" />
<glyph unicode="c" horiz-adv-x="1132" d="M82 516q0 156 72.5 281t198 194.5t278.5 69.5q49 0 101.5 -7t107.5 -25t98 -44t70.5 -67.5t27.5 -92.5v-127h-176v72q0 55 -71.5 87t-151.5 32q-157 0 -254.5 -102t-97.5 -267q0 -171 104.5 -272t259.5 -101q165 0 324 128q3 2 4.5 3.5t3.5 2.5l76 -146q-24 -22 -56 -44 t-85.5 -51t-125.5 -47t-149 -18q-151 0 -277 64.5t-204 189.5t-78 287z" />
<glyph unicode="d" horiz-adv-x="1288" d="M86 518q0 246 130 394.5t341 148.5q66 0 123.5 -18t92 -43.5t59.5 -51t35 -43.5l10 -18h4q-7 33 -7 78v327h-172v154h371v-1247q0 -45 45 -45h105v-154h-207q-129 0 -129 113v14q0 16 1.5 29.5t3.5 19.5l1 6h-4q-3 -8 -10.5 -22t-36.5 -50t-65 -63t-100 -49.5t-138 -22.5 q-207 0 -330 149.5t-123 393.5zM289 518q0 -167 81.5 -269t211.5 -102q126 0 212.5 93.5t86.5 275.5q0 98 -31 180.5t-99.5 136.5t-162.5 54q-129 0 -214 -98.5t-85 -270.5z" />
<glyph unicode="e" horiz-adv-x="1136" d="M84 518q0 244 146.5 393.5t371.5 149.5q143 0 246.5 -66.5t153 -174.5t49.5 -245l-7 -75h-757q9 -165 111 -259t247 -94q50 0 100.5 12t86.5 29t64.5 34.5t43.5 29.5l14 12l82 -145q-6 -6 -18 -15.5t-52 -34.5t-84 -44t-112 -34.5t-137 -15.5q-160 0 -286 71.5 t-194.5 195t-68.5 276.5zM295 627h551q-4 131 -74.5 203.5t-173.5 72.5q-116 0 -199 -73.5t-104 -202.5z" />
<glyph unicode="f" horiz-adv-x="768" d="M88 883v153h172v51q0 95 27.5 166t67.5 109t94.5 61.5t97 30t86.5 6.5q24 0 47.5 -1.5t35.5 -2.5l11 -2v-164q-27 6 -74 6q-24 0 -46 -3t-50.5 -15.5t-48.5 -33t-34.5 -60t-14.5 -92.5v-56h250v-153h-250v-729h190v-154h-551v154h162v729h-172z" />
<glyph unicode="g" horiz-adv-x="1282" d="M88 543q0 149 52.5 265.5t157 184.5t245.5 68q110 0 203 -43t133 -127h4q-4 14 -4 41q0 51 28 77.5t90 26.5h222v-153h-115q-45 0 -45 -41v-799q0 -123 -44 -217t-119.5 -148.5t-166 -81t-192.5 -26.5q-183 0 -355 86l66 151q14 -8 39.5 -19.5t100.5 -30.5t144 -19 q146 0 237 72t91 223v82l6 65h-4q-100 -168 -311 -168q-140 0 -246.5 70.5t-161.5 190.5t-55 270zM291 547q0 -163 80.5 -263t218.5 -100q120 0 197 84.5t77 272.5q0 348 -293 348q-133 0 -206.5 -91.5t-73.5 -250.5z" />
<glyph unicode="h" horiz-adv-x="1380" d="M55 1292v154h371v-537q0 -22 -1.5 -43.5t-2.5 -31.5l-2 -11h4q18 40 51 79.5t80.5 76.5t114.5 59.5t141 22.5q182 0 269 -98.5t87 -298.5v-510h162v-154h-360v618q0 60 -8 103t-28 81t-60.5 57.5t-100.5 19.5q-151 0 -248.5 -113t-97.5 -281v-331h164v-154h-524v154h163 v1138h-174z" />
<glyph unicode="i" horiz-adv-x="688" d="M88 883v153h371v-882h164v-154h-525v154h162v729h-172zM256 1243v203h209v-203h-209z" />
<glyph unicode="j" horiz-adv-x="606" d="M-33 -256q18 -2 45 -2t52.5 4t57.5 18.5t55.5 38.5t39.5 68.5t16 103.5v908h-174v153h373v-1067q0 -71 -15.5 -130t-40.5 -99t-60 -70t-70.5 -47t-76 -27.5t-71.5 -14t-63 -3.5l-68 4v162zM229 1243v203h209v-203h-209z" />
<glyph unicode="k" horiz-adv-x="1202" d="M55 1292v154h371v-807h152l206 244h-135v153h471v-153h-137l-256 -299v-4q3 0 11.5 -5.5t27.5 -26.5t37 -52l176 -301q15 -25 32.5 -33t57.5 -8h66v-154h-156q-71 0 -104 18t-66 78l-205 350q-16 26 -37 33.5t-59 7.5h-82v-333h139v-154h-499v154h163v1138h-174z" />
<glyph unicode="l" horiz-adv-x="600" d="M2 1292v154h371v-1139q0 -73 23.5 -110t86.5 -37l56 2l-2 -164q-41 -4 -88 -4q-59 0 -105.5 13.5t-86.5 45.5t-61.5 93.5t-21.5 148.5v997h-172z" />
<glyph unicode="m" horiz-adv-x="2048" d="M88 883v153h234q131 0 131 -114v-54q0 -15 -1.5 -29.5t-3.5 -22.5l-2 -7h5q41 99 145 175.5t223 76.5q252 0 303 -244h4q45 102 147 173t224 71q338 0 338 -397v-510h164v-154h-363v621q0 60 -7 102.5t-25.5 80.5t-56 57.5t-93.5 19.5q-94 0 -165 -59t-105.5 -149.5 t-34.5 -195.5v-323h162v-154h-361v621q0 46 -3 79.5t-14 69.5t-30 59t-53 37.5t-80 14.5q-94 0 -167 -61.5t-108.5 -154t-35.5 -196.5v-315h164v-154h-525v154h162v686q0 43 -45 43h-127z" />
<glyph unicode="n" horiz-adv-x="1411" d="M88 883v153h234q131 0 131 -114v-54q0 -15 -1.5 -29.5t-3.5 -22.5l-2 -7h5q7 20 24 47.5t51.5 64.5t78 67.5t109.5 51.5t140 21q177 0 260.5 -98.5t83.5 -298.5v-510h164v-154h-363v618q0 60 -7.5 103t-27 81t-59.5 57.5t-100 19.5q-101 0 -181.5 -56.5t-122.5 -147 t-42 -194.5v-327h164v-154h-525v154h162v684q0 45 -45 45h-127z" />
<glyph unicode="o" horiz-adv-x="1282" d="M82 520q0 115 44 216t119.5 172t178 112t217.5 41t217.5 -41t178 -112t119.5 -172t44 -216q0 -154 -75 -279.5t-203 -195.5t-281 -70t-281 70t-203 195.5t-75 279.5zM285 520q0 -161 103 -267t253 -106q148 0 252 106t104 267q0 159 -104 264t-252 105q-150 0 -253 -105 t-103 -264z" />
<glyph unicode="p" horiz-adv-x="1304" d="M59 883v153h230q127 0 127 -102v-8l-4 -60h4q4 8 11 21t36 46.5t65 59.5t99.5 47t136.5 21q208 0 331.5 -150t123.5 -393q0 -244 -132 -393.5t-337 -149.5q-64 0 -120.5 18t-91.5 44t-61.5 52.5t-37.5 44.5l-11 18h-4q6 -38 6 -91v-317h164v-154h-524v154h161v1094 q0 45 -45 45h-127zM426 514q0 -95 32 -177t100.5 -136t160.5 -54q128 0 213.5 99t85.5 270q0 168 -82 269.5t-213 101.5q-126 0 -211.5 -93.5t-85.5 -279.5z" />
<glyph unicode="q" horiz-adv-x="1247" d="M86 518q0 245 131 394t338 149q191 0 325 -174q4 -4 5 -6h4q-4 28 -4 71v84h188v-1292h162v-154h-522v154h161v326q0 24 2 46.5t4 33.5l1 10h-4q-4 -8 -11.5 -20t-36 -44t-63.5 -56.5t-95 -44.5t-128 -20q-209 0 -333 149.5t-124 393.5zM289 518q0 -167 81.5 -269 t211.5 -102q60 0 112 21.5t95 65t67.5 117.5t24.5 169q0 96 -31 177.5t-100 136.5t-164 55q-126 0 -211.5 -100t-85.5 -271z" />
<glyph unicode="r" horiz-adv-x="866" d="M84 883v153h233q68 0 101 -29.5t33 -91.5v-65l-5 -72h5q37 119 124 195t203 76l51 -5v-196q-24 6 -57 6q-79 0 -141.5 -37.5t-99.5 -100t-55.5 -136t-18.5 -152.5v-274h153v-154h-508v154h156v684q0 45 -45 45h-129z" />
<glyph unicode="s" horiz-adv-x="985" d="M82 223v111h174v-68q0 -62 71.5 -95.5t166.5 -33.5q91 0 149.5 35t58.5 98q0 28 -12 51.5t-31.5 40.5t-51.5 33t-62.5 27.5t-74.5 27.5q-17 6 -26 9q-58 21 -94.5 36.5t-84.5 44.5t-76 59t-48 75.5t-20 99.5q0 74 34 131t90.5 90t122 49.5t136.5 16.5q58 0 117.5 -12 t115 -35t90.5 -65.5t35 -96.5v-125h-174v68q0 46 -53 76t-129 30q-78 0 -131 -32.5t-53 -92.5q0 -28 14 -52.5t33 -41t55.5 -34.5t62.5 -28t74 -26q42 -14 70 -24t67.5 -27.5t65 -33.5t54.5 -40.5t46 -50.5t28 -61.5t11 -75.5q0 -144 -116.5 -225t-299.5 -81 q-98 0 -188.5 27t-153.5 85t-63 136z" />
<glyph unicode="t" horiz-adv-x="737" d="M37 883v153h178v285h195v-285h247v-153h-247v-486q0 -60 16 -105.5t39 -69.5t55 -39t57.5 -19t53.5 -4l47 2v-166q-29 -4 -72 -4q-32 0 -63.5 3t-72 13.5t-75.5 27t-69.5 46t-59 69t-40 98.5t-15.5 130v504h-174z" />
<glyph unicode="u" horiz-adv-x="1361" d="M41 883v153h373v-622q0 -47 4 -82.5t16.5 -70t33.5 -56.5t56.5 -35.5t83.5 -13.5q100 0 178 58.5t118 149.5t40 195v324h-174v153h373v-839q0 -45 45 -45h108v-152h-215q-131 0 -131 115v45l4 61h-4q-7 -20 -23.5 -47t-50.5 -63t-76 -65.5t-107 -50t-138 -20.5 q-169 0 -254.5 97.5t-85.5 300.5v510h-174z" />
<glyph unicode="v" horiz-adv-x="1189" d="M18 883v153h465v-153h-133l219 -604q7 -20 13 -44.5t8 -38.5l2 -14h6q7 52 23 97l221 604h-133v153h462v-153h-129l-335 -883h-224l-333 883h-132z" />
<glyph unicode="w" horiz-adv-x="1753" d="M20 883v153h463v-153h-139l176 -602q5 -19 9.5 -43.5t6.5 -39.5l1 -14h6q4 54 16 97l227 753h181l227 -753q5 -19 9 -43.5t5 -39.5l2 -14h7q4 54 16 97l178 602h-141v153h463v-153h-129l-267 -883h-221l-219 692q-5 21 -9.5 45.5t-6.5 38.5l-2 15h-5q-6 -52 -18 -99 l-219 -692h-221l-266 883h-130z" />
<glyph unicode="x" horiz-adv-x="1171" d="M76 0v154h155l248 381l-229 348h-168v153h291l184 -301l35 -67h4q17 34 37 67l188 301h275v-153h-158l-231 -346l256 -383h139v-154h-264l-209 336l-37 65h-4q-14 -32 -37 -67l-205 -334h-270z" />
<glyph unicode="y" horiz-adv-x="1208" d="M18 883v153h474v-153h-138l232 -617q6 -20 10.5 -42.5t5.5 -35.5l2 -12h6q9 45 25 90l229 617h-133v153h459v-153h-129l-410 -1047q-52 -130 -147 -198t-217 -68q-59 0 -115 16t-82 32l-27 17l68 150q7 -5 19.5 -13.5t51 -22t77.5 -13.5q64 0 113 39.5t77 103.5l43 103 l-362 901h-132z" />
<glyph unicode="z" horiz-adv-x="1079" d="M98 0v131l572 692q14 16 28 31t22 22l7 7v4q-43 -4 -84 -4h-360v-166h-174v319h858v-131l-568 -692q-14 -16 -28 -30.5t-21 -20.5l-8 -6v-4q41 2 82 2h383v165h174v-319h-883z" />
<glyph unicode="{" horiz-adv-x="690" d="M68 578v176q7 1 19 3t42 16t52.5 36t41.5 67t19 105v172q0 67 13.5 121.5t34.5 91t51.5 63.5t60 42t63.5 24t58.5 11.5t49.5 2.5l50 -2v-151h-29q-20 0 -39 -3t-46 -16t-46 -35t-33 -63.5t-14 -97.5v-211q0 -57 -17 -104.5t-41.5 -75t-49 -47t-41.5 -26.5l-17 -7v-4 q7 -2 18 -6.5t39.5 -24.5t50.5 -46t40 -75t18 -108v-236q0 -56 14 -97.5t33 -63.5t46 -35t46 -16t39 -3h29v-152q-21 -4 -50 -4q-37 0 -73 5.5t-85 27.5t-85 58.5t-62 105.5t-26 162v196q0 59 -18 103.5t-43.5 66t-51 35t-43.5 16.5z" />
<glyph unicode="|" horiz-adv-x="563" d="M195 -326v1948h174v-1948h-174z" />
<glyph unicode="}" horiz-adv-x="690" d="M70 -45h28q20 0 38.5 3t45 16t45.5 35t33 63.5t14 97.5v236q0 59 17 107.5t41.5 75.5t49 45.5t41.5 25.5l17 6v4q-7 2 -18 7t-39.5 26t-50.5 47.5t-40 74.5t-18 105v211q0 56 -14 97.5t-33 63.5t-45.5 35t-45 16t-38.5 3h-28v151q18 2 47 2q37 0 73 -5.5t85.5 -27 t85.5 -57.5t62 -105t26 -161v-172q0 -60 18 -105t43.5 -67t51 -36t43.5 -17l18 -2v-176q-7 -1 -19 -3t-42 -16t-52.5 -35.5t-41.5 -66t-19 -103.5v-196q0 -93 -26 -162t-62 -105.5t-85.5 -58.5t-85.5 -27.5t-73 -5.5l-47 4v152z" />
<glyph unicode="~" horiz-adv-x="1247" d="M137 418q0 174 74.5 260t210.5 86q60 0 108 -20.5t80 -50t61 -59.5t65 -50.5t79 -20.5q72 0 104.5 58t32.5 135h162q0 -175 -75.5 -260.5t-211.5 -85.5q-59 0 -107.5 20.5t-80 49.5t-60.5 58t-65.5 49.5t-79.5 20.5q-38 0 -65.5 -17.5t-42 -46.5t-21 -60.5t-6.5 -65.5 h-162z" />
<glyph unicode="&#xa2;" horiz-adv-x="1134" d="M84 723q0 149 51.5 272.5t150.5 204t230 98.5v172h146v-172q133 -20 232 -103.5t153 -213.5l-181 -70q-90 203 -270 203q-145 0 -227 -110t-82 -281q0 -176 80 -282.5t229 -106.5q94 0 161.5 54.5t108.5 148.5l181 -72q-55 -126 -152.5 -213.5t-232.5 -101.5v-177h-146 v177q-131 18 -230 98.5t-150.5 203.5t-51.5 271z" />
<glyph unicode="&#xa3;" horiz-adv-x="1257" d="M88 0v164h176v489h-139v144h139v278q0 171 126 283t319 112q58 0 114.5 -13t96 -32t70.5 -37.5t46 -31.5l15 -13l-113 -139q-11 9 -31.5 23t-80 37.5t-115.5 23.5q-111 0 -176.5 -63t-65.5 -158v-270h369v-144h-369v-485h522v233h178v-401h-1081z" />
<glyph unicode="&#xa5;" horiz-adv-x="1298" d="M86 1446h231l242 -451q20 -43 42 -95t34 -83l12 -31h4q43 113 88 209l244 451h231l-340 -606h209v-129h-276l-55 -99v-75h331v-129h-331v-408h-205v408h-334v129h334v75l-55 99h-279v129h211z" />
<glyph unicode="&#xa8;" d="M217 1599v207h176v-207h-176zM627 1599v207h176v-207h-176z" />
<glyph unicode="&#xa9;" horiz-adv-x="1642" d="M92 723q0 153 57.5 291.5t154.5 238.5t231.5 158.5t283.5 58.5q201 0 369.5 -99.5t266 -271t97.5 -376.5q0 -153 -57.5 -292t-155.5 -238.5t-234 -158.5t-286 -59q-149 0 -283.5 59t-231.5 158.5t-154.5 238.5t-57.5 292zM242 723q0 -126 44.5 -239t121.5 -194t184 -128 t227 -47q97 0 187 30t161.5 85.5t124.5 130.5t82 168t29 194t-29 194t-82 168t-124.5 130.5t-161.5 85.5t-187 30q-120 0 -227 -47t-184 -128t-121.5 -194t-44.5 -239zM430 721q0 108 48.5 201t142 150.5t213.5 57.5q66 0 124.5 -21t95 -50.5t63.5 -59t39 -50.5l11 -21 l-125 -68q-3 5 -8.5 14t-24.5 31t-40.5 39t-56.5 31t-72 14q-117 0 -185.5 -78.5t-68.5 -189.5q0 -114 67 -191t187 -77q38 0 72.5 13.5t57 32.5t40 37.5t24.5 31.5l8 14l125 -68q-4 -8 -12 -22t-37.5 -49t-64.5 -61.5t-94 -48.5t-125 -22q-180 0 -292 120.5t-112 289.5z " />
<glyph unicode="&#xab;" horiz-adv-x="1148" d="M88 578l336 421h199l-336 -421l336 -420h-199zM502 578l336 421h198l-336 -421l336 -420h-198z" />
<glyph unicode="&#xad;" horiz-adv-x="974" d="M188 496v176h598v-176h-598z" />
<glyph unicode="&#xae;" horiz-adv-x="1642" d="M92 723q0 153 57.5 291.5t154.5 238.5t231.5 158.5t283.5 58.5q201 0 369.5 -99.5t266 -271t97.5 -376.5q0 -153 -57.5 -292t-155.5 -238.5t-234 -158.5t-286 -59q-149 0 -283.5 59t-231.5 158.5t-154.5 238.5t-57.5 292zM242 723q0 -126 44.5 -239t121.5 -194t184 -128 t227 -47q97 0 187 30t161.5 85.5t124.5 130.5t82 168t29 194t-29 194t-82 168t-124.5 130.5t-161.5 85.5t-187 30q-120 0 -227 -47t-184 -128t-121.5 -194t-44.5 -239zM569 340v772h297q109 0 176.5 -64t67.5 -171q0 -82 -43.5 -136.5t-97.5 -68.5v-4q8 -8 26 -43l148 -285 h-160l-143 299h-125v-299h-146zM715 745h123q57 0 91 35.5t34 96.5q0 59 -33.5 91.5t-91.5 32.5h-123v-256z" />
<glyph unicode="&#xb4;" d="M295 1546l213 260h227l-254 -260h-186z" />
<glyph unicode="&#xb8;" d="M342 -322q39 -12 90 -12q105 0 105 66q0 35 -34 52t-87 17h-35l65 250l105 -20v-17l-33 -129q69 -5 115.5 -47t46.5 -106q0 -89 -65.5 -132.5t-161.5 -43.5q-27 0 -55 3.5t-42 6.5l-14 4v108z" />
<glyph unicode="&#xbb;" horiz-adv-x="1146" d="M113 158l336 420l-336 421h198l336 -421l-336 -420h-198zM524 158l336 420l-336 421h199l336 -421l-336 -420h-199z" />
<glyph unicode="&#x2c6;" d="M223 1546l180 260h215l181 -260h-178l-109 164h-4l-107 -164h-178z" />
<glyph unicode="&#x2da;" horiz-adv-x="1024" d="M324 1677q0 77 55.5 123.5t132.5 46.5q78 0 135.5 -47t57.5 -123q0 -73 -58 -118.5t-135 -45.5t-132.5 45t-55.5 119zM438 1677q0 -33 20 -53t54 -20q35 0 55.5 20t20.5 53q0 37 -20.5 58.5t-55.5 21.5q-33 0 -53.5 -22t-20.5 -58z" />
<glyph unicode="&#x2dc;" d="M162 1548q0 260 209 260q41 0 75 -14t56.5 -34t42.5 -40.5t41.5 -34.5t44.5 -14q45 0 63.5 38.5t18.5 92.5h147q0 -260 -209 -260q-41 0 -75 14t-56.5 34t-42.5 40.5t-41.5 34.5t-44.5 14q-82 0 -82 -131h-147z" />
<glyph unicode="&#x2000;" horiz-adv-x="923" />
<glyph unicode="&#x2001;" horiz-adv-x="1847" />
<glyph unicode="&#x2002;" horiz-adv-x="923" />
<glyph unicode="&#x2003;" horiz-adv-x="1847" />
<glyph unicode="&#x2004;" horiz-adv-x="615" />
<glyph unicode="&#x2005;" horiz-adv-x="461" />
<glyph unicode="&#x2006;" horiz-adv-x="307" />
<glyph unicode="&#x2007;" horiz-adv-x="307" />
<glyph unicode="&#x2008;" horiz-adv-x="230" />
<glyph unicode="&#x2009;" horiz-adv-x="369" />
<glyph unicode="&#x200a;" horiz-adv-x="102" />
<glyph unicode="&#x2010;" horiz-adv-x="974" d="M188 496v176h598v-176h-598z" />
<glyph unicode="&#x2011;" horiz-adv-x="974" d="M188 496v176h598v-176h-598z" />
<glyph unicode="&#x2012;" horiz-adv-x="974" d="M188 496v176h598v-176h-598z" />
<glyph unicode="&#x2013;" horiz-adv-x="1462" d="M193 504v160h1077v-160h-1077z" />
<glyph unicode="&#x2014;" horiz-adv-x="1871" d="M193 504v160h1486v-160h-1486z" />
<glyph unicode="&#x2018;" horiz-adv-x="468" d="M96 1022l146 446h147l-100 -446h-193z" />
<glyph unicode="&#x2019;" horiz-adv-x="456" d="M102 1022l101 446h192l-145 -446h-148z" />
<glyph unicode="&#x201a;" horiz-adv-x="503" d="M74 -231l100 446h188l-145 -446h-143z" />
<glyph unicode="&#x201c;" horiz-adv-x="772" d="M96 1022l146 446h147l-98 -446h-195zM397 1022l146 446h147l-98 -446h-195z" />
<glyph unicode="&#x201d;" horiz-adv-x="757" d="M102 1022l101 446h192l-145 -446h-148zM403 1022l101 446h192l-145 -446h-148z" />
<glyph unicode="&#x201e;" horiz-adv-x="798" d="M74 -231l100 446h188l-145 -446h-143zM371 -231l100 446h186l-145 -446h-141z" />
<glyph unicode="&#x2022;" horiz-adv-x="845" d="M106 596q0 132 92.5 224.5t223.5 92.5q132 0 224.5 -92.5t92.5 -224.5t-92.5 -224.5t-224.5 -92.5q-131 0 -223.5 92.5t-92.5 224.5z" />
<glyph unicode="&#x2026;" horiz-adv-x="1581" d="M156 0v215h206v-215h-206zM686 0v215h209v-215h-209zM1219 0v215h206v-215h-206z" />
<glyph unicode="&#x202f;" horiz-adv-x="369" />
<glyph unicode="&#x2039;" horiz-adv-x="735" d="M88 578l336 421h199l-336 -421l336 -420h-199z" />
<glyph unicode="&#x203a;" horiz-adv-x="735" d="M113 158l336 420l-336 421h198l336 -421l-336 -420h-198z" />
<glyph unicode="&#x205f;" horiz-adv-x="461" />
<glyph unicode="&#x20ac;" horiz-adv-x="1226" d="M90 512v125h113q-11 85 0 188h-113v127h135q64 228 252.5 373t437.5 145q50 0 102 -6t79 -12l26 -6l-47 -176q-80 20 -164 20q-169 0 -294 -92t-177 -246h574l-27 -127h-575q-10 -79 0 -188h542l-26 -125h-482q48 -159 175.5 -256.5t296.5 -97.5q46 0 93 7t71 14l24 7 l39 -176q-101 -35 -230 -35q-258 0 -445 149.5t-247 387.5h-133z" />
<glyph unicode="&#x2122;" horiz-adv-x="1953" d="M57 1309v137h781v-137h-314v-764h-153v764h-314zM901 545l72 901h143l213 -471q7 -16 14 -37.5t10 -35.5l3 -13h4q13 49 29 86l213 471h143l70 -901h-156l-41 538l2 62h-4l-195 -434h-125l-194 434h-4l2 -62l-43 -538h-156z" />
<glyph unicode="&#x25fc;" horiz-adv-x="1034" d="M0 0v1034h1034v-1034h-1034z" />
<hkern u1="&#x26;" u2="V" k="20" />
<hkern u1="&#x2b;" u2="&#x37;" k="39" />
<hkern u1="&#x2b;" u2="&#x33;" k="20" />
<hkern u1="&#x2c;" u2="&#x34;" k="27" />
<hkern u1="&#x2d;" u2="&#x37;" k="47" />
<hkern u1="&#x2d;" u2="&#x33;" k="53" />
<hkern u1="&#x2d;" u2="&#x32;" k="27" />
<hkern u1="&#x2d;" u2="&#x31;" k="43" />
<hkern u1="&#x2e;" u2="v" k="39" />
<hkern u1="&#x2e;" u2="V" k="135" />
<hkern u1="&#x2e;" u2="&#x34;" k="29" />
<hkern u1="&#x37;" u2="&#x34;" k="23" />
<hkern u1="&#x3d;" u2="&#x37;" k="33" />
<hkern u1="&#x3d;" u2="&#x31;" k="25" />
<hkern u1="&#x40;" u2="Y" k="33" />
<hkern u1="&#x40;" u2="W" k="29" />
<hkern u1="&#x40;" u2="V" k="37" />
<hkern u1="B" u2="x" k="12" />
<hkern u1="B" u2="p" k="8" />
<hkern u1="B" u2="V" k="16" />
<hkern u1="F" u2="x" k="74" />
<hkern u1="F" u2="v" k="8" />
<hkern u1="F" u2="q" k="37" />
<hkern u1="F" u2="p" k="16" />
<hkern u1="F" u2="&#x3b;" k="16" />
<hkern u1="F" u2="&#x2c;" k="98" />
<hkern u1="M" u2="v" k="59" />
<hkern u1="M" u2="q" k="16" />
<hkern u1="M" u2="p" k="31" />
<hkern u1="M" u2="V" k="10" />
<hkern u1="P" u2="q" k="14" />
<hkern u1="P" u2="X" k="25" />
<hkern u1="P" u2="M" k="16" />
<hkern u1="P" u2="&#x2c;" k="154" />
<hkern u1="V" u2="x" k="100" />
<hkern u1="V" u2="v" k="18" />
<hkern u1="V" u2="q" k="119" />
<hkern u1="V" u2="p" k="35" />
<hkern u1="V" u2="j" k="29" />
<hkern u1="V" u2="M" k="10" />
<hkern u1="V" u2="&#x40;" k="29" />
<hkern u1="V" u2="&#x3b;" k="41" />
<hkern u1="V" u2="&#x3a;" k="39" />
<hkern u1="V" u2="&#x2f;" k="31" />
<hkern u1="V" u2="&#x2c;" k="137" />
<hkern u1="W" u2="&#x40;" k="23" />
<hkern u1="X" u2="v" k="61" />
<hkern u1="X" u2="q" k="43" />
<hkern u1="X" u2="p" k="47" />
<hkern u1="X" u2="j" k="33" />
<hkern u1="Y" u2="&#x40;" k="35" />
<hkern u1="\" u2="V" k="31" />
<hkern u1="a" u2="Y" k="150" />
<hkern u1="a" u2="W" k="98" />
<hkern u1="a" u2="V" k="145" />
<hkern u1="a" u2="T" k="98" />
<hkern u1="c" u2="Z" k="10" />
<hkern u1="c" u2="Y" k="143" />
<hkern u1="c" u2="W" k="80" />
<hkern u1="c" u2="V" k="115" />
<hkern u1="c" u2="T" k="72" />
<hkern u1="c" u2="S" k="8" />
<hkern u1="d" u2="Y" k="27" />
<hkern u1="d" u2="W" k="31" />
<hkern u1="d" u2="V" k="29" />
<hkern u1="d" u2="T" k="23" />
<hkern u1="e" u2="Z" k="12" />
<hkern u1="e" u2="Y" k="168" />
<hkern u1="e" u2="X" k="8" />
<hkern u1="e" u2="W" k="86" />
<hkern u1="e" u2="V" k="139" />
<hkern u1="e" u2="T" k="70" />
<hkern u1="f" u2="&#x2122;" k="-25" />
<hkern u1="f" u2="J" k="16" />
<hkern u1="g" u2="Z" k="8" />
<hkern u1="g" u2="Y" k="51" />
<hkern u1="g" u2="X" k="47" />
<hkern u1="g" u2="W" k="33" />
<hkern u1="g" u2="V" k="37" />
<hkern u1="g" u2="M" k="31" />
<hkern u1="g" u2="J" k="16" />
<hkern u1="i" u2="Y" k="35" />
<hkern u1="i" u2="W" k="37" />
<hkern u1="i" u2="V" k="37" />
<hkern u1="i" u2="T" k="33" />
<hkern u1="j" u2="Z" k="10" />
<hkern u1="j" u2="Y" k="16" />
<hkern u1="j" u2="W" k="16" />
<hkern u1="j" u2="V" k="16" />
<hkern u1="j" u2="T" k="12" />
<hkern u1="j" u2="S" k="10" />
<hkern u1="j" u2="M" k="14" />
<hkern u1="k" u2="Y" k="96" />
<hkern u1="k" u2="W" k="76" />
<hkern u1="k" u2="V" k="84" />
<hkern u1="k" u2="T" k="23" />
<hkern u1="l" u2="Y" k="33" />
<hkern u1="l" u2="W" k="35" />
<hkern u1="l" u2="V" k="35" />
<hkern u1="l" u2="T" k="29" />
<hkern u1="o" u2="Z" k="39" />
<hkern u1="o" u2="Y" k="150" />
<hkern u1="o" u2="X" k="55" />
<hkern u1="o" u2="W" k="94" />
<hkern u1="o" u2="V" k="129" />
<hkern u1="o" u2="T" k="72" />
<hkern u1="o" u2="M" k="25" />
<hkern u1="q" u2="Z" k="23" />
<hkern u1="q" u2="Y" k="94" />
<hkern u1="q" u2="X" k="25" />
<hkern u1="q" u2="W" k="72" />
<hkern u1="q" u2="V" k="84" />
<hkern u1="q" u2="T" k="49" />
<hkern u1="q" u2="S" k="10" />
<hkern u1="q" u2="M" k="18" />
<hkern u1="r" u2="Y" k="45" />
<hkern u1="r" u2="X" k="68" />
<hkern u1="r" u2="W" k="29" />
<hkern u1="r" u2="V" k="33" />
<hkern u1="r" u2="M" k="39" />
<hkern u1="r" u2="J" k="37" />
<hkern u1="s" u2="Z" k="8" />
<hkern u1="s" u2="Y" k="143" />
<hkern u1="s" u2="W" k="78" />
<hkern u1="s" u2="V" k="121" />
<hkern u1="s" u2="T" k="68" />
<hkern u1="t" u2="Y" k="76" />
<hkern u1="t" u2="W" k="37" />
<hkern u1="t" u2="V" k="70" />
<hkern u1="t" u2="T" k="16" />
<hkern u1="u" u2="Y" k="109" />
<hkern u1="u" u2="W" k="100" />
<hkern u1="u" u2="V" k="123" />
<hkern u1="u" u2="T" k="70" />
<hkern u1="v" u2="Y" k="29" />
<hkern u1="v" u2="X" k="66" />
<hkern u1="v" u2="W" k="16" />
<hkern u1="v" u2="V" k="18" />
<hkern u1="v" u2="M" k="59" />
<hkern u1="v" u2="J" k="31" />
<hkern u1="v" u2="&#x3f;" k="27" />
<hkern u1="v" u2="&#x2c;" k="41" />
<hkern u1="w" u2="Y" k="29" />
<hkern u1="w" u2="X" k="57" />
<hkern u1="w" u2="W" k="16" />
<hkern u1="w" u2="V" k="18" />
<hkern u1="w" u2="M" k="53" />
<hkern u1="w" u2="J" k="23" />
<hkern u1="x" u2="Y" k="98" />
<hkern u1="x" u2="W" k="78" />
<hkern u1="x" u2="V" k="86" />
<hkern u1="x" u2="T" k="18" />
<hkern u1="y" u2="Y" k="29" />
<hkern u1="y" u2="X" k="66" />
<hkern u1="y" u2="W" k="16" />
<hkern u1="y" u2="V" k="18" />
<hkern u1="y" u2="M" k="61" />
<hkern u1="y" u2="J" k="31" />
<hkern u1="z" u2="Y" k="74" />
<hkern u1="z" u2="W" k="59" />
<hkern u1="z" u2="V" k="70" />
<hkern u1="z" u2="T" k="14" />
<hkern u1="&#x2019;" u2="&#x40;" k="29" />
<hkern u1="&#x2019;" u2="&#x2f;" k="27" />
<hkern g1="quotedbl,quotesingle" 	g2="comma" 	k="172" />
<hkern g1="quotedbl,quotesingle" 	g2="period,ellipsis" 	k="172" />
<hkern g1="quotedbl,quotesingle" 	g2="four" 	k="25" />
<hkern g1="quotedbl,quotesingle" 	g2="A" 	k="94" />
<hkern g1="quotedbl,quotesingle" 	g2="J" 	k="90" />
<hkern g1="quotedbl,quotesingle" 	g2="d" 	k="27" />
<hkern g1="quotedbl,quotesingle" 	g2="e" 	k="27" />
<hkern g1="quotedbl,quotesingle" 	g2="g" 	k="18" />
<hkern g1="quotedbl,quotesingle" 	g2="c,o" 	k="31" />
<hkern g1="quotedbl,quotesingle" 	g2="q" 	k="23" />
<hkern g1="quotedbl,quotesingle" 	g2="quotesinglbase,quotedblbase" 	k="172" />
<hkern g1="quotedbl,quotesingle" 	g2="guillemotleft,guilsinglleft" 	k="20" />
<hkern g1="asterisk" 	g2="A" 	k="55" />
<hkern g1="asterisk" 	g2="J" 	k="88" />
<hkern g1="comma" 	g2="quotedbl,quotesingle" 	k="170" />
<hkern g1="comma" 	g2="quoteleft,quotedblleft" 	k="162" />
<hkern g1="comma" 	g2="quoteright,quotedblright" 	k="164" />
<hkern g1="hyphen,endash,emdash" 	g2="Y" 	k="135" />
<hkern g1="hyphen,endash,emdash" 	g2="A" 	k="47" />
<hkern g1="hyphen,endash,emdash" 	g2="B,D,E,F,H,I,K,L,N,P,R" 	k="35" />
<hkern g1="hyphen,endash,emdash" 	g2="M" 	k="37" />
<hkern g1="hyphen,endash,emdash" 	g2="T" 	k="143" />
<hkern g1="hyphen,endash,emdash" 	g2="U" 	k="29" />
<hkern g1="hyphen,endash,emdash" 	g2="V" 	k="80" />
<hkern g1="hyphen,endash,emdash" 	g2="W" 	k="59" />
<hkern g1="hyphen,endash,emdash" 	g2="X" 	k="70" />
<hkern g1="hyphen,endash,emdash" 	g2="Z" 	k="66" />
<hkern g1="period" 	g2="Y" 	k="66" />
<hkern g1="period" 	g2="quotedbl,quotesingle" 	k="172" />
<hkern g1="period" 	g2="quoteleft,quotedblleft" 	k="160" />
<hkern g1="period" 	g2="quoteright,quotedblright" 	k="162" />
<hkern g1="period" 	g2="T" 	k="66" />
<hkern g1="period" 	g2="U" 	k="41" />
<hkern g1="period" 	g2="W" 	k="88" />
<hkern g1="period" 	g2="C,G,O,Q" 	k="29" />
<hkern g1="period" 	g2="w" 	k="25" />
<hkern g1="period" 	g2="y" 	k="43" />
<hkern g1="slash" 	g2="A" 	k="31" />
<hkern g1="backslash" 	g2="Y" 	k="23" />
<hkern g1="backslash" 	g2="W" 	k="25" />
<hkern g1="quoteleft,quotedblleft" 	g2="comma" 	k="180" />
<hkern g1="quoteleft,quotedblleft" 	g2="period,ellipsis" 	k="176" />
<hkern g1="quoteleft,quotedblleft" 	g2="A" 	k="102" />
<hkern g1="quoteleft,quotedblleft" 	g2="J" 	k="84" />
<hkern g1="quoteleft,quotedblleft" 	g2="d" 	k="33" />
<hkern g1="quoteleft,quotedblleft" 	g2="e" 	k="33" />
<hkern g1="quoteleft,quotedblleft" 	g2="g" 	k="25" />
<hkern g1="quoteleft,quotedblleft" 	g2="c,o" 	k="37" />
<hkern g1="quoteleft,quotedblleft" 	g2="q" 	k="29" />
<hkern g1="quoteleft,quotedblleft" 	g2="s" 	k="16" />
<hkern g1="quoteright,quotedblright" 	g2="comma" 	k="184" />
<hkern g1="quoteright,quotedblright" 	g2="period,ellipsis" 	k="178" />
<hkern g1="quoteright,quotedblright" 	g2="A" 	k="106" />
<hkern g1="quoteright,quotedblright" 	g2="J" 	k="82" />
<hkern g1="quoteright,quotedblright" 	g2="d" 	k="39" />
<hkern g1="quoteright,quotedblright" 	g2="e" 	k="39" />
<hkern g1="quoteright,quotedblright" 	g2="g" 	k="29" />
<hkern g1="quoteright,quotedblright" 	g2="c,o" 	k="43" />
<hkern g1="quoteright,quotedblright" 	g2="q" 	k="33" />
<hkern g1="quoteright,quotedblright" 	g2="quotesinglbase,quotedblbase" 	k="182" />
<hkern g1="quoteright,quotedblright" 	g2="guillemotleft,guilsinglleft" 	k="35" />
<hkern g1="quoteright,quotedblright" 	g2="s" 	k="23" />
<hkern g1="quoteright,quotedblright" 	g2="a" 	k="18" />
<hkern g1="quotesinglbase,quotedblbase" 	g2="Y" 	k="70" />
<hkern g1="quotesinglbase,quotedblbase" 	g2="quotedbl,quotesingle" 	k="170" />
<hkern g1="quotesinglbase,quotedblbase" 	g2="quoteright,quotedblright" 	k="162" />
<hkern g1="quotesinglbase,quotedblbase" 	g2="T" 	k="72" />
<hkern g1="quotesinglbase,quotedblbase" 	g2="U" 	k="39" />
<hkern g1="quotesinglbase,quotedblbase" 	g2="V" 	k="133" />
<hkern g1="quotesinglbase,quotedblbase" 	g2="W" 	k="86" />
<hkern g1="quotesinglbase,quotedblbase" 	g2="C,G,O,Q" 	k="29" />
<hkern g1="quotesinglbase,quotedblbase" 	g2="w" 	k="25" />
<hkern g1="quotesinglbase,quotedblbase" 	g2="y" 	k="41" />
<hkern g1="quotesinglbase,quotedblbase" 	g2="v" 	k="35" />
<hkern g1="guillemotleft,guilsinglleft" 	g2="Y" 	k="31" />
<hkern g1="guillemotleft,guilsinglleft" 	g2="V" 	k="25" />
<hkern g1="guillemotleft,guilsinglleft" 	g2="W" 	k="20" />
<hkern g1="guillemotright,guilsinglright" 	g2="Y" 	k="82" />
<hkern g1="guillemotright,guilsinglright" 	g2="quotedbl,quotesingle" 	k="20" />
<hkern g1="guillemotright,guilsinglright" 	g2="T" 	k="49" />
<hkern g1="guillemotright,guilsinglright" 	g2="V" 	k="51" />
<hkern g1="guillemotright,guilsinglright" 	g2="W" 	k="35" />
<hkern g1="guillemotright,guilsinglright" 	g2="Z" 	k="20" />
<hkern g1="A" 	g2="Y" 	k="109" />
<hkern g1="A" 	g2="d" 	k="12" />
<hkern g1="A" 	g2="e" 	k="16" />
<hkern g1="A" 	g2="g" 	k="16" />
<hkern g1="A" 	g2="c,o" 	k="16" />
<hkern g1="A" 	g2="q" 	k="12" />
<hkern g1="A" 	g2="quotedbl,quotesingle" 	k="94" />
<hkern g1="A" 	g2="quoteleft,quotedblleft" 	k="82" />
<hkern g1="A" 	g2="quoteright,quotedblright" 	k="84" />
<hkern g1="A" 	g2="T" 	k="102" />
<hkern g1="A" 	g2="U" 	k="66" />
<hkern g1="A" 	g2="V" 	k="127" />
<hkern g1="A" 	g2="W" 	k="94" />
<hkern g1="A" 	g2="C,G,O,Q" 	k="33" />
<hkern g1="A" 	g2="w" 	k="76" />
<hkern g1="A" 	g2="y" 	k="82" />
<hkern g1="A" 	g2="s" 	k="8" />
<hkern g1="A" 	g2="v" 	k="78" />
<hkern g1="A" 	g2="asterisk" 	k="55" />
<hkern g1="A" 	g2="hyphen,endash,emdash" 	k="47" />
<hkern g1="A" 	g2="backslash" 	k="31" />
<hkern g1="A" 	g2="b" 	k="10" />
<hkern g1="A" 	g2="f" 	k="8" />
<hkern g1="A" 	g2="i" 	k="8" />
<hkern g1="A" 	g2="j" 	k="23" />
<hkern g1="A" 	g2="l" 	k="16" />
<hkern g1="A" 	g2="m,n,r" 	k="8" />
<hkern g1="A" 	g2="p" 	k="23" />
<hkern g1="A" 	g2="t" 	k="37" />
<hkern g1="A" 	g2="u" 	k="33" />
<hkern g1="B" 	g2="Y" 	k="16" />
<hkern g1="B" 	g2="A" 	k="10" />
<hkern g1="B" 	g2="W" 	k="14" />
<hkern g1="B" 	g2="f" 	k="8" />
<hkern g1="B" 	g2="i" 	k="8" />
<hkern g1="B" 	g2="j" 	k="8" />
<hkern g1="B" 	g2="m,n,r" 	k="8" />
<hkern g1="B" 	g2="h,k" 	k="10" />
<hkern g1="B" 	g2="z" 	k="8" />
<hkern g1="D" 	g2="Y" 	k="39" />
<hkern g1="D" 	g2="comma" 	k="31" />
<hkern g1="D" 	g2="period,ellipsis" 	k="27" />
<hkern g1="D" 	g2="A" 	k="31" />
<hkern g1="D" 	g2="quotesinglbase,quotedblbase" 	k="29" />
<hkern g1="D" 	g2="B,D,E,F,H,I,K,L,N,P,R" 	k="14" />
<hkern g1="D" 	g2="M" 	k="16" />
<hkern g1="D" 	g2="U" 	k="10" />
<hkern g1="D" 	g2="V" 	k="31" />
<hkern g1="D" 	g2="W" 	k="25" />
<hkern g1="D" 	g2="X" 	k="51" />
<hkern g1="D" 	g2="b" 	k="8" />
<hkern g1="D" 	g2="l" 	k="8" />
<hkern g1="D" 	g2="h,k" 	k="20" />
<hkern g1="E" 	g2="g" 	k="8" />
<hkern g1="E" 	g2="c,o" 	k="8" />
<hkern g1="E" 	g2="w" 	k="20" />
<hkern g1="E" 	g2="y" 	k="25" />
<hkern g1="E" 	g2="v" 	k="25" />
<hkern g1="E" 	g2="hyphen,endash,emdash" 	k="39" />
<hkern g1="E" 	g2="j" 	k="14" />
<hkern g1="E" 	g2="p" 	k="16" />
<hkern g1="E" 	g2="t" 	k="12" />
<hkern g1="E" 	g2="u" 	k="14" />
<hkern g1="F" 	g2="period,ellipsis" 	k="102" />
<hkern g1="F" 	g2="A" 	k="88" />
<hkern g1="F" 	g2="J" 	k="82" />
<hkern g1="F" 	g2="d" 	k="37" />
<hkern g1="F" 	g2="e" 	k="39" />
<hkern g1="F" 	g2="g" 	k="35" />
<hkern g1="F" 	g2="c,o" 	k="39" />
<hkern g1="F" 	g2="quotesinglbase,quotedblbase" 	k="100" />
<hkern g1="F" 	g2="y" 	k="8" />
<hkern g1="F" 	g2="s" 	k="59" />
<hkern g1="F" 	g2="a" 	k="70" />
<hkern g1="F" 	g2="hyphen,endash,emdash" 	k="23" />
<hkern g1="F" 	g2="f" 	k="20" />
<hkern g1="F" 	g2="i" 	k="18" />
<hkern g1="F" 	g2="j" 	k="10" />
<hkern g1="F" 	g2="m,n,r" 	k="25" />
<hkern g1="F" 	g2="t" 	k="8" />
<hkern g1="F" 	g2="u" 	k="14" />
<hkern g1="F" 	g2="z" 	k="25" />
<hkern g1="G" 	g2="Y" 	k="10" />
<hkern g1="G" 	g2="A" 	k="10" />
<hkern g1="G" 	g2="V" 	k="10" />
<hkern g1="G" 	g2="W" 	k="10" />
<hkern g1="H,I" 	g2="d" 	k="27" />
<hkern g1="H,I" 	g2="e" 	k="33" />
<hkern g1="H,I" 	g2="g" 	k="35" />
<hkern g1="H,I" 	g2="c,o" 	k="35" />
<hkern g1="H,I" 	g2="q" 	k="27" />
<hkern g1="H,I" 	g2="C,G,O,Q" 	k="14" />
<hkern g1="H,I" 	g2="w" 	k="33" />
<hkern g1="H,I" 	g2="y" 	k="35" />
<hkern g1="H,I" 	g2="s" 	k="8" />
<hkern g1="H,I" 	g2="v" 	k="35" />
<hkern g1="H,I" 	g2="hyphen,endash,emdash" 	k="37" />
<hkern g1="H,I" 	g2="f" 	k="8" />
<hkern g1="H,I" 	g2="i" 	k="8" />
<hkern g1="H,I" 	g2="j" 	k="25" />
<hkern g1="H,I" 	g2="m,n,r" 	k="8" />
<hkern g1="H,I" 	g2="p" 	k="35" />
<hkern g1="H,I" 	g2="t" 	k="23" />
<hkern g1="H,I" 	g2="u" 	k="35" />
<hkern g1="J" 	g2="comma" 	k="35" />
<hkern g1="J" 	g2="period,ellipsis" 	k="31" />
<hkern g1="J" 	g2="A" 	k="43" />
<hkern g1="J" 	g2="J" 	k="14" />
<hkern g1="J" 	g2="d" 	k="41" />
<hkern g1="J" 	g2="e" 	k="41" />
<hkern g1="J" 	g2="g" 	k="41" />
<hkern g1="J" 	g2="c,o" 	k="43" />
<hkern g1="J" 	g2="q" 	k="41" />
<hkern g1="J" 	g2="quotesinglbase,quotedblbase" 	k="33" />
<hkern g1="J" 	g2="C,G,O,Q" 	k="10" />
<hkern g1="J" 	g2="w" 	k="16" />
<hkern g1="J" 	g2="y" 	k="16" />
<hkern g1="J" 	g2="s" 	k="43" />
<hkern g1="J" 	g2="a" 	k="41" />
<hkern g1="J" 	g2="v" 	k="16" />
<hkern g1="J" 	g2="hyphen,endash,emdash" 	k="27" />
<hkern g1="J" 	g2="f" 	k="37" />
<hkern g1="J" 	g2="i" 	k="29" />
<hkern g1="J" 	g2="j" 	k="20" />
<hkern g1="J" 	g2="m,n,r" 	k="41" />
<hkern g1="J" 	g2="p" 	k="33" />
<hkern g1="J" 	g2="t" 	k="16" />
<hkern g1="J" 	g2="u" 	k="25" />
<hkern g1="J" 	g2="z" 	k="41" />
<hkern g1="J" 	g2="colon" 	k="16" />
<hkern g1="J" 	g2="semicolon" 	k="18" />
<hkern g1="J" 	g2="x" 	k="88" />
<hkern g1="K" 	g2="d" 	k="39" />
<hkern g1="K" 	g2="e" 	k="53" />
<hkern g1="K" 	g2="g" 	k="57" />
<hkern g1="K" 	g2="c,o" 	k="57" />
<hkern g1="K" 	g2="q" 	k="39" />
<hkern g1="K" 	g2="C,G,O,Q" 	k="49" />
<hkern g1="K" 	g2="w" 	k="57" />
<hkern g1="K" 	g2="y" 	k="68" />
<hkern g1="K" 	g2="v" 	k="66" />
<hkern g1="K" 	g2="hyphen,endash,emdash" 	k="63" />
<hkern g1="K" 	g2="j" 	k="33" />
<hkern g1="K" 	g2="p" 	k="47" />
<hkern g1="K" 	g2="t" 	k="37" />
<hkern g1="K" 	g2="u" 	k="47" />
<hkern g1="L" 	g2="Y" 	k="90" />
<hkern g1="L" 	g2="quotedbl,quotesingle" 	k="125" />
<hkern g1="L" 	g2="quoteleft,quotedblleft" 	k="137" />
<hkern g1="L" 	g2="quoteright,quotedblright" 	k="133" />
<hkern g1="L" 	g2="T" 	k="84" />
<hkern g1="L" 	g2="U" 	k="29" />
<hkern g1="L" 	g2="V" 	k="133" />
<hkern g1="L" 	g2="W" 	k="90" />
<hkern g1="L" 	g2="w" 	k="35" />
<hkern g1="L" 	g2="y" 	k="51" />
<hkern g1="L" 	g2="v" 	k="47" />
<hkern g1="L" 	g2="asterisk" 	k="127" />
<hkern g1="L" 	g2="hyphen,endash,emdash" 	k="37" />
<hkern g1="L" 	g2="backslash" 	k="23" />
<hkern g1="L" 	g2="j" 	k="20" />
<hkern g1="L" 	g2="l" 	k="8" />
<hkern g1="L" 	g2="p" 	k="18" />
<hkern g1="L" 	g2="t" 	k="20" />
<hkern g1="L" 	g2="u" 	k="20" />
<hkern g1="M" 	g2="d" 	k="16" />
<hkern g1="M" 	g2="e" 	k="23" />
<hkern g1="M" 	g2="g" 	k="25" />
<hkern g1="M" 	g2="c,o" 	k="25" />
<hkern g1="M" 	g2="W" 	k="10" />
<hkern g1="M" 	g2="C,G,O,Q" 	k="16" />
<hkern g1="M" 	g2="w" 	k="53" />
<hkern g1="M" 	g2="y" 	k="61" />
<hkern g1="M" 	g2="hyphen,endash,emdash" 	k="37" />
<hkern g1="M" 	g2="j" 	k="29" />
<hkern g1="M" 	g2="t" 	k="37" />
<hkern g1="M" 	g2="u" 	k="37" />
<hkern g1="N" 	g2="comma" 	k="20" />
<hkern g1="N" 	g2="period,ellipsis" 	k="20" />
<hkern g1="N" 	g2="A" 	k="20" />
<hkern g1="N" 	g2="J" 	k="14" />
<hkern g1="N" 	g2="d" 	k="37" />
<hkern g1="N" 	g2="e" 	k="41" />
<hkern g1="N" 	g2="g" 	k="39" />
<hkern g1="N" 	g2="c,o" 	k="43" />
<hkern g1="N" 	g2="q" 	k="37" />
<hkern g1="N" 	g2="quotesinglbase,quotedblbase" 	k="18" />
<hkern g1="N" 	g2="C,G,O,Q" 	k="10" />
<hkern g1="N" 	g2="w" 	k="18" />
<hkern g1="N" 	g2="y" 	k="20" />
<hkern g1="N" 	g2="s" 	k="45" />
<hkern g1="N" 	g2="a" 	k="41" />
<hkern g1="N" 	g2="v" 	k="18" />
<hkern g1="N" 	g2="hyphen,endash,emdash" 	k="27" />
<hkern g1="N" 	g2="f" 	k="37" />
<hkern g1="N" 	g2="i" 	k="27" />
<hkern g1="N" 	g2="j" 	k="27" />
<hkern g1="N" 	g2="m,n,r" 	k="41" />
<hkern g1="N" 	g2="p" 	k="37" />
<hkern g1="N" 	g2="t" 	k="18" />
<hkern g1="N" 	g2="u" 	k="27" />
<hkern g1="N" 	g2="z" 	k="41" />
<hkern g1="N" 	g2="x" 	k="84" />
<hkern g1="O,Q" 	g2="Y" 	k="39" />
<hkern g1="O,Q" 	g2="comma" 	k="33" />
<hkern g1="O,Q" 	g2="period,ellipsis" 	k="29" />
<hkern g1="O,Q" 	g2="A" 	k="33" />
<hkern g1="O,Q" 	g2="quotesinglbase,quotedblbase" 	k="33" />
<hkern g1="O,Q" 	g2="B,D,E,F,H,I,K,L,N,P,R" 	k="14" />
<hkern g1="O,Q" 	g2="M" 	k="16" />
<hkern g1="O,Q" 	g2="U" 	k="10" />
<hkern g1="O,Q" 	g2="V" 	k="33" />
<hkern g1="O,Q" 	g2="W" 	k="25" />
<hkern g1="O,Q" 	g2="X" 	k="49" />
<hkern g1="O,Q" 	g2="h,k" 	k="20" />
<hkern g1="P" 	g2="period,ellipsis" 	k="156" />
<hkern g1="P" 	g2="A" 	k="88" />
<hkern g1="P" 	g2="J" 	k="82" />
<hkern g1="P" 	g2="d" 	k="14" />
<hkern g1="P" 	g2="e" 	k="14" />
<hkern g1="P" 	g2="g" 	k="12" />
<hkern g1="P" 	g2="c,o" 	k="16" />
<hkern g1="P" 	g2="quotesinglbase,quotedblbase" 	k="154" />
<hkern g1="P" 	g2="s" 	k="10" />
<hkern g1="P" 	g2="a" 	k="14" />
<hkern g1="P" 	g2="hyphen,endash,emdash" 	k="18" />
<hkern g1="R" 	g2="Y" 	k="35" />
<hkern g1="R" 	g2="J" 	k="12" />
<hkern g1="R" 	g2="d" 	k="18" />
<hkern g1="R" 	g2="e" 	k="23" />
<hkern g1="R" 	g2="g" 	k="23" />
<hkern g1="R" 	g2="c,o" 	k="25" />
<hkern g1="R" 	g2="q" 	k="18" />
<hkern g1="R" 	g2="guillemotleft,guilsinglleft" 	k="20" />
<hkern g1="R" 	g2="B,D,E,F,H,I,K,L,N,P,R" 	k="10" />
<hkern g1="R" 	g2="T" 	k="18" />
<hkern g1="R" 	g2="U" 	k="23" />
<hkern g1="R" 	g2="V" 	k="37" />
<hkern g1="R" 	g2="W" 	k="31" />
<hkern g1="R" 	g2="C,G,O,Q" 	k="14" />
<hkern g1="R" 	g2="w" 	k="18" />
<hkern g1="R" 	g2="y" 	k="20" />
<hkern g1="R" 	g2="s" 	k="10" />
<hkern g1="R" 	g2="a" 	k="8" />
<hkern g1="R" 	g2="v" 	k="20" />
<hkern g1="R" 	g2="S" 	k="10" />
<hkern g1="R" 	g2="hyphen,endash,emdash" 	k="37" />
<hkern g1="R" 	g2="b" 	k="12" />
<hkern g1="R" 	g2="f" 	k="10" />
<hkern g1="R" 	g2="i" 	k="10" />
<hkern g1="R" 	g2="j" 	k="18" />
<hkern g1="R" 	g2="l" 	k="16" />
<hkern g1="R" 	g2="m,n,r" 	k="10" />
<hkern g1="R" 	g2="p" 	k="16" />
<hkern g1="R" 	g2="t" 	k="16" />
<hkern g1="R" 	g2="u" 	k="16" />
<hkern g1="R" 	g2="h,k" 	k="8" />
<hkern g1="R" 	g2="z" 	k="8" />
<hkern g1="S" 	g2="A" 	k="10" />
<hkern g1="S" 	g2="V" 	k="10" />
<hkern g1="S" 	g2="W" 	k="10" />
<hkern g1="S" 	g2="y" 	k="8" />
<hkern g1="S" 	g2="v" 	k="8" />
<hkern g1="S" 	g2="f" 	k="8" />
<hkern g1="S" 	g2="i" 	k="8" />
<hkern g1="S" 	g2="j" 	k="10" />
<hkern g1="S" 	g2="m,n,r" 	k="8" />
<hkern g1="S" 	g2="p" 	k="10" />
<hkern g1="S" 	g2="u" 	k="8" />
<hkern g1="S" 	g2="z" 	k="8" />
<hkern g1="S" 	g2="x" 	k="10" />
<hkern g1="T" 	g2="comma" 	k="63" />
<hkern g1="T" 	g2="period,ellipsis" 	k="66" />
<hkern g1="T" 	g2="A" 	k="102" />
<hkern g1="T" 	g2="J" 	k="88" />
<hkern g1="T" 	g2="d" 	k="70" />
<hkern g1="T" 	g2="e" 	k="70" />
<hkern g1="T" 	g2="g" 	k="70" />
<hkern g1="T" 	g2="c,o" 	k="72" />
<hkern g1="T" 	g2="q" 	k="70" />
<hkern g1="T" 	g2="quotesinglbase,quotedblbase" 	k="63" />
<hkern g1="T" 	g2="guillemotleft,guilsinglleft" 	k="49" />
<hkern g1="T" 	g2="s" 	k="70" />
<hkern g1="T" 	g2="a" 	k="70" />
<hkern g1="T" 	g2="hyphen,endash,emdash" 	k="143" />
<hkern g1="T" 	g2="f" 	k="8" />
<hkern g1="T" 	g2="i" 	k="8" />
<hkern g1="T" 	g2="m,n,r" 	k="8" />
<hkern g1="T" 	g2="z" 	k="14" />
<hkern g1="T" 	g2="x" 	k="25" />
<hkern g1="U" 	g2="comma" 	k="47" />
<hkern g1="U" 	g2="period,ellipsis" 	k="43" />
<hkern g1="U" 	g2="A" 	k="68" />
<hkern g1="U" 	g2="J" 	k="18" />
<hkern g1="U" 	g2="d" 	k="47" />
<hkern g1="U" 	g2="e" 	k="49" />
<hkern g1="U" 	g2="g" 	k="47" />
<hkern g1="U" 	g2="c,o" 	k="49" />
<hkern g1="U" 	g2="q" 	k="47" />
<hkern g1="U" 	g2="quotesinglbase,quotedblbase" 	k="45" />
<hkern g1="U" 	g2="C,G,O,Q" 	k="10" />
<hkern g1="U" 	g2="w" 	k="12" />
<hkern g1="U" 	g2="y" 	k="14" />
<hkern g1="U" 	g2="s" 	k="55" />
<hkern g1="U" 	g2="a" 	k="53" />
<hkern g1="U" 	g2="v" 	k="14" />
<hkern g1="U" 	g2="hyphen,endash,emdash" 	k="27" />
<hkern g1="U" 	g2="f" 	k="39" />
<hkern g1="U" 	g2="i" 	k="29" />
<hkern g1="U" 	g2="j" 	k="20" />
<hkern g1="U" 	g2="m,n,r" 	k="41" />
<hkern g1="U" 	g2="p" 	k="29" />
<hkern g1="U" 	g2="t" 	k="14" />
<hkern g1="U" 	g2="u" 	k="20" />
<hkern g1="U" 	g2="z" 	k="49" />
<hkern g1="U" 	g2="colon" 	k="18" />
<hkern g1="U" 	g2="semicolon" 	k="20" />
<hkern g1="U" 	g2="x" 	k="90" />
<hkern g1="V" 	g2="period,ellipsis" 	k="135" />
<hkern g1="V" 	g2="A" 	k="127" />
<hkern g1="V" 	g2="J" 	k="88" />
<hkern g1="V" 	g2="d" 	k="119" />
<hkern g1="V" 	g2="e" 	k="125" />
<hkern g1="V" 	g2="g" 	k="121" />
<hkern g1="V" 	g2="c,o" 	k="129" />
<hkern g1="V" 	g2="quotesinglbase,quotedblbase" 	k="135" />
<hkern g1="V" 	g2="guillemotleft,guilsinglleft" 	k="51" />
<hkern g1="V" 	g2="C,G,O,Q" 	k="31" />
<hkern g1="V" 	g2="w" 	k="18" />
<hkern g1="V" 	g2="y" 	k="18" />
<hkern g1="V" 	g2="s" 	k="135" />
<hkern g1="V" 	g2="a" 	k="129" />
<hkern g1="V" 	g2="S" 	k="10" />
<hkern g1="V" 	g2="hyphen,endash,emdash" 	k="80" />
<hkern g1="V" 	g2="b" 	k="-41" />
<hkern g1="V" 	g2="f" 	k="57" />
<hkern g1="V" 	g2="i" 	k="39" />
<hkern g1="V" 	g2="l" 	k="-37" />
<hkern g1="V" 	g2="m,n,r" 	k="51" />
<hkern g1="V" 	g2="t" 	k="23" />
<hkern g1="V" 	g2="u" 	k="27" />
<hkern g1="V" 	g2="z" 	k="66" />
<hkern g1="V" 	g2="guillemotright,guilsinglright" 	k="25" />
<hkern g1="W" 	g2="comma" 	k="88" />
<hkern g1="W" 	g2="period,ellipsis" 	k="88" />
<hkern g1="W" 	g2="A" 	k="94" />
<hkern g1="W" 	g2="J" 	k="84" />
<hkern g1="W" 	g2="d" 	k="86" />
<hkern g1="W" 	g2="e" 	k="92" />
<hkern g1="W" 	g2="g" 	k="88" />
<hkern g1="W" 	g2="c,o" 	k="94" />
<hkern g1="W" 	g2="q" 	k="86" />
<hkern g1="W" 	g2="quotesinglbase,quotedblbase" 	k="88" />
<hkern g1="W" 	g2="guillemotleft,guilsinglleft" 	k="35" />
<hkern g1="W" 	g2="M" 	k="10" />
<hkern g1="W" 	g2="C,G,O,Q" 	k="25" />
<hkern g1="W" 	g2="w" 	k="16" />
<hkern g1="W" 	g2="y" 	k="16" />
<hkern g1="W" 	g2="s" 	k="86" />
<hkern g1="W" 	g2="a" 	k="84" />
<hkern g1="W" 	g2="v" 	k="16" />
<hkern g1="W" 	g2="S" 	k="10" />
<hkern g1="W" 	g2="hyphen,endash,emdash" 	k="59" />
<hkern g1="W" 	g2="b" 	k="-29" />
<hkern g1="W" 	g2="f" 	k="39" />
<hkern g1="W" 	g2="i" 	k="35" />
<hkern g1="W" 	g2="j" 	k="25" />
<hkern g1="W" 	g2="l" 	k="-27" />
<hkern g1="W" 	g2="m,n,r" 	k="43" />
<hkern g1="W" 	g2="p" 	k="31" />
<hkern g1="W" 	g2="t" 	k="20" />
<hkern g1="W" 	g2="u" 	k="23" />
<hkern g1="W" 	g2="z" 	k="55" />
<hkern g1="W" 	g2="colon" 	k="33" />
<hkern g1="W" 	g2="semicolon" 	k="33" />
<hkern g1="W" 	g2="x" 	k="92" />
<hkern g1="W" 	g2="guillemotright,guilsinglright" 	k="20" />
<hkern g1="W" 	g2="slash" 	k="25" />
<hkern g1="X" 	g2="d" 	k="43" />
<hkern g1="X" 	g2="e" 	k="57" />
<hkern g1="X" 	g2="g" 	k="61" />
<hkern g1="X" 	g2="c,o" 	k="61" />
<hkern g1="X" 	g2="C,G,O,Q" 	k="49" />
<hkern g1="X" 	g2="w" 	k="55" />
<hkern g1="X" 	g2="y" 	k="63" />
<hkern g1="X" 	g2="hyphen,endash,emdash" 	k="74" />
<hkern g1="X" 	g2="t" 	k="37" />
<hkern g1="X" 	g2="u" 	k="47" />
<hkern g1="Y" 	g2="comma" 	k="61" />
<hkern g1="Y" 	g2="period,ellipsis" 	k="66" />
<hkern g1="Y" 	g2="A" 	k="109" />
<hkern g1="Y" 	g2="J" 	k="88" />
<hkern g1="Y" 	g2="d" 	k="139" />
<hkern g1="Y" 	g2="e" 	k="145" />
<hkern g1="Y" 	g2="g" 	k="143" />
<hkern g1="Y" 	g2="c,o" 	k="150" />
<hkern g1="Y" 	g2="q" 	k="139" />
<hkern g1="Y" 	g2="quotesinglbase,quotedblbase" 	k="61" />
<hkern g1="Y" 	g2="guillemotleft,guilsinglleft" 	k="82" />
<hkern g1="Y" 	g2="C,G,O,Q" 	k="39" />
<hkern g1="Y" 	g2="w" 	k="29" />
<hkern g1="Y" 	g2="y" 	k="29" />
<hkern g1="Y" 	g2="s" 	k="152" />
<hkern g1="Y" 	g2="a" 	k="141" />
<hkern g1="Y" 	g2="v" 	k="29" />
<hkern g1="Y" 	g2="S" 	k="10" />
<hkern g1="Y" 	g2="hyphen,endash,emdash" 	k="135" />
<hkern g1="Y" 	g2="b" 	k="-41" />
<hkern g1="Y" 	g2="f" 	k="63" />
<hkern g1="Y" 	g2="i" 	k="43" />
<hkern g1="Y" 	g2="j" 	k="33" />
<hkern g1="Y" 	g2="l" 	k="-39" />
<hkern g1="Y" 	g2="m,n,r" 	k="61" />
<hkern g1="Y" 	g2="p" 	k="47" />
<hkern g1="Y" 	g2="t" 	k="29" />
<hkern g1="Y" 	g2="u" 	k="39" />
<hkern g1="Y" 	g2="z" 	k="74" />
<hkern g1="Y" 	g2="colon" 	k="45" />
<hkern g1="Y" 	g2="semicolon" 	k="45" />
<hkern g1="Y" 	g2="x" 	k="113" />
<hkern g1="Y" 	g2="guillemotright,guilsinglright" 	k="31" />
<hkern g1="Y" 	g2="slash" 	k="23" />
<hkern g1="Z" 	g2="g" 	k="8" />
<hkern g1="Z" 	g2="w" 	k="43" />
<hkern g1="Z" 	g2="y" 	k="47" />
<hkern g1="Z" 	g2="v" 	k="45" />
<hkern g1="Z" 	g2="hyphen,endash,emdash" 	k="43" />
<hkern g1="Z" 	g2="j" 	k="25" />
<hkern g1="Z" 	g2="p" 	k="29" />
<hkern g1="Z" 	g2="t" 	k="25" />
<hkern g1="Z" 	g2="u" 	k="27" />
<hkern g1="Z" 	g2="z" 	k="8" />
<hkern g1="a" 	g2="quotedbl,quotesingle" 	k="31" />
<hkern g1="a" 	g2="quoteleft,quotedblleft" 	k="20" />
<hkern g1="a" 	g2="quoteright,quotedblright" 	k="23" />
<hkern g1="a" 	g2="U" 	k="63" />
<hkern g1="a" 	g2="C,G,O,Q" 	k="18" />
<hkern g1="a" 	g2="w" 	k="23" />
<hkern g1="a" 	g2="y" 	k="29" />
<hkern g1="a" 	g2="v" 	k="27" />
<hkern g1="a" 	g2="backslash" 	k="20" />
<hkern g1="a" 	g2="j" 	k="12" />
<hkern g1="a" 	g2="l" 	k="12" />
<hkern g1="a" 	g2="p" 	k="12" />
<hkern g1="a" 	g2="t" 	k="14" />
<hkern g1="a" 	g2="u" 	k="12" />
<hkern g1="b,p" 	g2="Y" 	k="141" />
<hkern g1="b,p" 	g2="A" 	k="12" />
<hkern g1="b,p" 	g2="quotedbl,quotesingle" 	k="27" />
<hkern g1="b,p" 	g2="quoteleft,quotedblleft" 	k="16" />
<hkern g1="b,p" 	g2="quoteright,quotedblright" 	k="18" />
<hkern g1="b,p" 	g2="B,D,E,F,H,I,K,L,N,P,R" 	k="29" />
<hkern g1="b,p" 	g2="M" 	k="18" />
<hkern g1="b,p" 	g2="T" 	k="70" />
<hkern g1="b,p" 	g2="U" 	k="47" />
<hkern g1="b,p" 	g2="V" 	k="119" />
<hkern g1="b,p" 	g2="W" 	k="86" />
<hkern g1="b,p" 	g2="X" 	k="41" />
<hkern g1="b,p" 	g2="Z" 	k="31" />
<hkern g1="c" 	g2="B,D,E,F,H,I,K,L,N,P,R" 	k="10" />
<hkern g1="c" 	g2="U" 	k="68" />
<hkern g1="d" 	g2="g" 	k="8" />
<hkern g1="d" 	g2="c,o" 	k="8" />
<hkern g1="d" 	g2="U" 	k="27" />
<hkern g1="d" 	g2="C,G,O,Q" 	k="18" />
<hkern g1="d" 	g2="w" 	k="10" />
<hkern g1="d" 	g2="y" 	k="12" />
<hkern g1="d" 	g2="v" 	k="12" />
<hkern g1="d" 	g2="j" 	k="8" />
<hkern g1="d" 	g2="l" 	k="14" />
<hkern g1="d" 	g2="p" 	k="8" />
<hkern g1="d" 	g2="t" 	k="8" />
<hkern g1="d" 	g2="u" 	k="8" />
<hkern g1="e" 	g2="A" 	k="8" />
<hkern g1="e" 	g2="quotedbl,quotesingle" 	k="18" />
<hkern g1="e" 	g2="B,D,E,F,H,I,K,L,N,P,R" 	k="12" />
<hkern g1="e" 	g2="U" 	k="51" />
<hkern g1="f" 	g2="e" 	k="8" />
<hkern g1="f" 	g2="c,o" 	k="10" />
<hkern g1="g" 	g2="A" 	k="20" />
<hkern g1="g" 	g2="c,o" 	k="8" />
<hkern g1="g" 	g2="B,D,E,F,H,I,K,L,N,P,R" 	k="33" />
<hkern g1="g" 	g2="U" 	k="31" />
<hkern g1="g" 	g2="l" 	k="8" />
<hkern g1="g" 	g2="h,k" 	k="10" />
<hkern g1="i" 	g2="e" 	k="8" />
<hkern g1="i" 	g2="g" 	k="10" />
<hkern g1="i" 	g2="c,o" 	k="10" />
<hkern g1="i" 	g2="U" 	k="35" />
<hkern g1="i" 	g2="C,G,O,Q" 	k="25" />
<hkern g1="i" 	g2="w" 	k="14" />
<hkern g1="i" 	g2="y" 	k="18" />
<hkern g1="i" 	g2="v" 	k="18" />
<hkern g1="i" 	g2="b" 	k="8" />
<hkern g1="i" 	g2="j" 	k="10" />
<hkern g1="i" 	g2="l" 	k="16" />
<hkern g1="i" 	g2="p" 	k="12" />
<hkern g1="i" 	g2="t" 	k="10" />
<hkern g1="i" 	g2="u" 	k="10" />
<hkern g1="j" 	g2="A" 	k="10" />
<hkern g1="j" 	g2="B,D,E,F,H,I,K,L,N,P,R" 	k="16" />
<hkern g1="j" 	g2="U" 	k="14" />
<hkern g1="j" 	g2="C,G,O,Q" 	k="10" />
<hkern g1="j" 	g2="h,k" 	k="8" />
<hkern g1="k" 	g2="e" 	k="12" />
<hkern g1="k" 	g2="g" 	k="10" />
<hkern g1="k" 	g2="c,o" 	k="20" />
<hkern g1="k" 	g2="U" 	k="74" />
<hkern g1="k" 	g2="l" 	k="14" />
<hkern g1="l" 	g2="e" 	k="8" />
<hkern g1="l" 	g2="g" 	k="8" />
<hkern g1="l" 	g2="c,o" 	k="8" />
<hkern g1="l" 	g2="U" 	k="33" />
<hkern g1="l" 	g2="C,G,O,Q" 	k="23" />
<hkern g1="l" 	g2="w" 	k="14" />
<hkern g1="l" 	g2="y" 	k="16" />
<hkern g1="l" 	g2="v" 	k="16" />
<hkern g1="l" 	g2="b" 	k="8" />
<hkern g1="l" 	g2="j" 	k="10" />
<hkern g1="l" 	g2="l" 	k="14" />
<hkern g1="l" 	g2="p" 	k="10" />
<hkern g1="l" 	g2="t" 	k="10" />
<hkern g1="l" 	g2="u" 	k="10" />
<hkern g1="h,m,n" 	g2="Y" 	k="147" />
<hkern g1="h,m,n" 	g2="quotedbl,quotesingle" 	k="29" />
<hkern g1="h,m,n" 	g2="quoteleft,quotedblleft" 	k="20" />
<hkern g1="h,m,n" 	g2="quoteright,quotedblright" 	k="20" />
<hkern g1="h,m,n" 	g2="T" 	k="102" />
<hkern g1="h,m,n" 	g2="U" 	k="66" />
<hkern g1="h,m,n" 	g2="V" 	k="147" />
<hkern g1="h,m,n" 	g2="W" 	k="102" />
<hkern g1="h,m,n" 	g2="C,G,O,Q" 	k="20" />
<hkern g1="h,m,n" 	g2="w" 	k="25" />
<hkern g1="h,m,n" 	g2="y" 	k="31" />
<hkern g1="h,m,n" 	g2="v" 	k="29" />
<hkern g1="h,m,n" 	g2="asterisk" 	k="16" />
<hkern g1="h,m,n" 	g2="backslash" 	k="20" />
<hkern g1="h,m,n" 	g2="j" 	k="12" />
<hkern g1="h,m,n" 	g2="l" 	k="12" />
<hkern g1="h,m,n" 	g2="p" 	k="12" />
<hkern g1="h,m,n" 	g2="t" 	k="14" />
<hkern g1="h,m,n" 	g2="u" 	k="14" />
<hkern g1="o" 	g2="A" 	k="16" />
<hkern g1="o" 	g2="quotedbl,quotesingle" 	k="31" />
<hkern g1="o" 	g2="quoteleft,quotedblleft" 	k="20" />
<hkern g1="o" 	g2="quoteright,quotedblright" 	k="20" />
<hkern g1="o" 	g2="B,D,E,F,H,I,K,L,N,P,R" 	k="33" />
<hkern g1="o" 	g2="U" 	k="49" />
<hkern g1="o" 	g2="w" 	k="8" />
<hkern g1="o" 	g2="y" 	k="10" />
<hkern g1="o" 	g2="v" 	k="10" />
<hkern g1="o" 	g2="f" 	k="8" />
<hkern g1="o" 	g2="i" 	k="8" />
<hkern g1="o" 	g2="j" 	k="8" />
<hkern g1="o" 	g2="m,n,r" 	k="8" />
<hkern g1="o" 	g2="p" 	k="8" />
<hkern g1="o" 	g2="h,k" 	k="10" />
<hkern g1="o" 	g2="x" 	k="25" />
<hkern g1="q" 	g2="A" 	k="10" />
<hkern g1="q" 	g2="B,D,E,F,H,I,K,L,N,P,R" 	k="31" />
<hkern g1="q" 	g2="U" 	k="47" />
<hkern g1="q" 	g2="C,G,O,Q" 	k="10" />
<hkern g1="q" 	g2="j" 	k="-82" />
<hkern g1="q" 	g2="h,k" 	k="8" />
<hkern g1="r" 	g2="A" 	k="39" />
<hkern g1="r" 	g2="c,o" 	k="10" />
<hkern g1="r" 	g2="B,D,E,F,H,I,K,L,N,P,R" 	k="35" />
<hkern g1="r" 	g2="U" 	k="27" />
<hkern g1="r" 	g2="h,k" 	k="10" />
<hkern g1="r" 	g2="question" 	k="23" />
<hkern g1="s" 	g2="A" 	k="8" />
<hkern g1="s" 	g2="B,D,E,F,H,I,K,L,N,P,R" 	k="10" />
<hkern g1="s" 	g2="U" 	k="51" />
<hkern g1="t" 	g2="U" 	k="35" />
<hkern g1="u" 	g2="e" 	k="8" />
<hkern g1="u" 	g2="g" 	k="8" />
<hkern g1="u" 	g2="c,o" 	k="8" />
<hkern g1="u" 	g2="U" 	k="61" />
<hkern g1="u" 	g2="C,G,O,Q" 	k="20" />
<hkern g1="u" 	g2="w" 	k="12" />
<hkern g1="u" 	g2="y" 	k="14" />
<hkern g1="u" 	g2="v" 	k="14" />
<hkern g1="u" 	g2="b" 	k="8" />
<hkern g1="u" 	g2="j" 	k="10" />
<hkern g1="u" 	g2="l" 	k="14" />
<hkern g1="u" 	g2="p" 	k="10" />
<hkern g1="u" 	g2="t" 	k="10" />
<hkern g1="u" 	g2="u" 	k="10" />
<hkern g1="v" 	g2="period,ellipsis" 	k="39" />
<hkern g1="v" 	g2="A" 	k="78" />
<hkern g1="v" 	g2="e" 	k="8" />
<hkern g1="v" 	g2="c,o" 	k="10" />
<hkern g1="v" 	g2="quotesinglbase,quotedblbase" 	k="39" />
<hkern g1="v" 	g2="B,D,E,F,H,I,K,L,N,P,R" 	k="35" />
<hkern g1="v" 	g2="U" 	k="14" />
<hkern g1="v" 	g2="h,k" 	k="18" />
<hkern g1="w" 	g2="comma" 	k="27" />
<hkern g1="w" 	g2="period,ellipsis" 	k="25" />
<hkern g1="w" 	g2="A" 	k="76" />
<hkern g1="w" 	g2="c,o" 	k="8" />
<hkern g1="w" 	g2="quotesinglbase,quotedblbase" 	k="27" />
<hkern g1="w" 	g2="B,D,E,F,H,I,K,L,N,P,R" 	k="33" />
<hkern g1="w" 	g2="U" 	k="12" />
<hkern g1="w" 	g2="h,k" 	k="14" />
<hkern g1="w" 	g2="question" 	k="23" />
<hkern g1="x" 	g2="e" 	k="12" />
<hkern g1="x" 	g2="c,o" 	k="18" />
<hkern g1="x" 	g2="U" 	k="76" />
<hkern g1="x" 	g2="l" 	k="12" />
<hkern g1="y" 	g2="comma" 	k="43" />
<hkern g1="y" 	g2="period,ellipsis" 	k="39" />
<hkern g1="y" 	g2="A" 	k="78" />
<hkern g1="y" 	g2="e" 	k="8" />
<hkern g1="y" 	g2="c,o" 	k="10" />
<hkern g1="y" 	g2="quotesinglbase,quotedblbase" 	k="41" />
<hkern g1="y" 	g2="B,D,E,F,H,I,K,L,N,P,R" 	k="35" />
<hkern g1="y" 	g2="U" 	k="14" />
<hkern g1="y" 	g2="h,k" 	k="18" />
<hkern g1="y" 	g2="question" 	k="27" />
<hkern g1="z" 	g2="U" 	k="53" />
</font>
</defs></svg> 